﻿Log file open, 01/10/23 04:43:24
LogWindows: Failed to load 'aqProf.dll' (GetLastError=126)
LogWindows: File 'aqProf.dll' does not exist
LogWindows: Failed to load 'VSPerf140.dll' (GetLastError=126)
LogWindows: File 'VSPerf140.dll' does not exist
LogWindows: Failed to load 'VtuneApi.dll' (GetLastError=126)
LogWindows: File 'VtuneApi.dll' does not exist
LogWindows: Failed to load 'VtuneApi32e.dll' (GetLastError=126)
LogWindows: File 'VtuneApi32e.dll' does not exist
LogInit: Display: Running engine for game: FireEscape
LogPlatformFile: Not using cached read wrapper
LogTaskGraph: Started task graph with 5 named threads and 23 total threads with 3 sets of task threads.
LogStats: Stats thread started at 0.399438
LogD3D11RHI: Loaded GFSDK_Aftermath_Lib.x64.dll
LogICUInternationalization: Display: ICU TimeZone Detection - Raw Offset: +9:00, Platform Override: ''
LogPluginManager: Mounting plugin Paper2D
LogPluginManager: Mounting plugin AISupport
LogPluginManager: Mounting plugin LightPropagationVolume
LogPluginManager: Mounting plugin CLionSourceCodeAccess
LogPluginManager: Mounting plugin CodeLiteSourceCodeAccess
LogPluginManager: Mounting plugin GitSourceControl
LogPluginManager: Mounting plugin KDevelopSourceCodeAccess
LogPluginManager: Mounting plugin NullSourceCodeAccess
LogPluginManager: Mounting plugin PerforceSourceControl
LogPluginManager: Mounting plugin SubversionSourceControl
LogPluginManager: Mounting plugin UObjectPlugin
LogPluginManager: Mounting plugin VisualStudioCodeSourceCodeAccess
LogPluginManager: Mounting plugin VisualStudioSourceCodeAccess
LogPluginManager: Mounting plugin XCodeSourceCodeAccess
LogPluginManager: Mounting plugin AssetManagerEditor
LogPluginManager: Mounting plugin CryptoKeys
LogPluginManager: Mounting plugin DataValidation
LogPluginManager: Mounting plugin FacialAnimation
LogPluginManager: Mounting plugin GameplayTagsEditor
LogPluginManager: Mounting plugin MacGraphicsSwitching
LogPluginManager: Mounting plugin MeshEditor
LogPluginManager: Mounting plugin MobileLauncherProfileWizard
LogPluginManager: Mounting plugin PluginBrowser
LogPluginManager: Mounting plugin SpeedTreeImporter
LogPluginManager: Mounting plugin DatasmithContent
LogPluginManager: Mounting plugin AlembicImporter
LogPluginManager: Mounting plugin AppleImageUtils
LogPluginManager: Mounting plugin AppleVision
LogPluginManager: Mounting plugin BackChannel
LogPluginManager: Mounting plugin CharacterAI
LogPluginManager: Mounting plugin GeometryCache
LogPluginManager: Mounting plugin HTML5Networking
LogPluginManager: Mounting plugin ProxyLODPlugin
LogPluginManager: Mounting plugin MagicLeap
LogPluginManager: Mounting plugin MagicLeapEmulator
LogPluginManager: Mounting plugin MagicLeapMedia
LogPluginManager: Mounting plugin AndroidMedia
LogPluginManager: Mounting plugin AvfMedia
LogPluginManager: Mounting plugin ImgMedia
LogPluginManager: Mounting plugin LinearTimecode
LogPluginManager: Mounting plugin MediaCompositing
LogPluginManager: Mounting plugin MediaPlayerEditor
LogPluginManager: Mounting plugin WmfMedia
LogPluginManager: Mounting plugin TcpMessaging
LogPluginManager: Mounting plugin UdpMessaging
LogPluginManager: Mounting plugin ActorSequence
LogPluginManager: Mounting plugin LevelSequenceEditor
LogPluginManager: Mounting plugin MatineeToLevelSequence
LogPluginManager: Mounting plugin NetcodeUnitTest
LogPluginManager: Mounting plugin NUTUnrealEngine4
LogPluginManager: Mounting plugin OnlineSubsystemGooglePlay
LogPluginManager: Mounting plugin OnlineSubsystemIOS
LogPluginManager: Mounting plugin OnlineSubsystem
LogPluginManager: Mounting plugin OnlineSubsystemNull
LogPluginManager: Mounting plugin OnlineSubsystemUtils
LogPluginManager: Mounting plugin LauncherChunkInstaller
LogPluginManager: Mounting plugin AndroidDeviceProfileSelector
LogPluginManager: Mounting plugin AndroidMoviePlayer
LogPluginManager: Mounting plugin AndroidPermission
LogPluginManager: Mounting plugin ApexDestruction
LogPluginManager: Mounting plugin AppleMoviePlayer
LogPluginManager: Mounting plugin ArchVisCharacter
LogPluginManager: Mounting plugin AudioCapture
LogPluginManager: Mounting plugin CableComponent
LogPluginManager: Mounting plugin CustomMeshComponent
LogPluginManager: Mounting plugin EditableMesh
LogPluginManager: Mounting plugin ExampleDeviceProfileSelector
LogPluginManager: Mounting plugin GoogleCloudMessaging
LogPluginManager: Mounting plugin ImmediatePhysics
LogPluginManager: Mounting plugin IOSDeviceProfileSelector
LogPluginManager: Mounting plugin LinuxDeviceProfileSelector
LogPluginManager: Mounting plugin LocationServicesBPLibrary
LogPluginManager: Mounting plugin MobilePatchingUtils
LogPluginManager: Mounting plugin OculusVR
LogPluginManager: Plugin shader directory ../../../Engine/Plugins/Runtime/Oculus/OculusVR/Shaders found
LogPluginManager: Mapping shader source directory ../../../Engine/Plugins/Runtime/Oculus/OculusVR/Shaders to virtual directory /Plugin/OculusVR
LogPluginManager: Mounting plugin PhysXVehicles
LogPluginManager: Mounting plugin ProceduralMeshComponent
LogPluginManager: Mounting plugin RuntimePhysXCooking
LogPluginManager: Mounting plugin SteamVR
LogPluginManager: Mounting plugin WindowsMoviePlayer
LogStreaming: Display: Took  0.135s to configure plugins.
LogInit: Using libcurl 7.55.1-DEV
LogInit:  - built for x86_64-pc-win32
LogInit:  - supports SSL with OpenSSL/1.0.2h
LogInit:  - supports HTTP deflate (compression) using libz 1.2.8
LogInit:  - other features:
LogInit:      CURL_VERSION_SSL
LogInit:      CURL_VERSION_LIBZ
LogInit:      CURL_VERSION_IPV6
LogInit:      CURL_VERSION_ASYNCHDNS
LogInit:      CURL_VERSION_LARGEFILE
LogInit:      CURL_VERSION_IDN
LogInit:  CurlRequestOptions (configurable via config and command line):
LogInit:  - bVerifyPeer = false  - Libcurl will NOT verify peer certificate
LogInit:  - bUseHttpProxy = false  - Libcurl will NOT use HTTP proxy
LogInit:  - bDontReuseConnections = false  - Libcurl will reuse connections
LogInit:  - CertBundlePath = nullptr  - Libcurl will use whatever was configured at build time.
LogInit:  - MaxHostConnections = 16  - Libcurl will limit the number of connections to a host
LogInit:  - LocalHostAddr = Default
LogInit:  - BufferSize = 65536
LogInit: WinSock: version 1.1 (2.2), MaxSocks=32767, MaxUdp=65467
LogHMD: Failed initializing OVRPlugin 1.25.0
LogInit: Build: ++UE4+Release-4.20-CL-4369336
LogInit: Engine Version: 4.20.3-4369336+++UE4+Release-4.20
LogInit: Compatible Engine Version: 4.20.0-4212847+++UE4+Release-4.20
LogInit: Net CL: 4212847
LogInit: OS: Windows 10 (), CPU: 11th Gen Intel(R) Core(TM) i7-1165G7 @ 2.80GHz, GPU: Intel(R) Iris(R) Xe Graphics
LogInit: Compiled (64-bit): Sep 17 2018 12:26:19
LogInit: Compiled with Visual C++: 19.13.26129.00
LogInit: Build Configuration: Development
LogInit: Branch Name: ++UE4+Release-4.20
LogInit: Command Line: -EpicPortal  -epicusername="Mia Kasama" -epicuserid=fab2e8bb250a48b9b5bfa6084b61121f -epiclocale=ja -epicsandboxid=ue
LogInit: Base Directory: C:/Program Files/Epic Games/UE_4.20/Engine/Binaries/Win64/
LogInit: Installed Engine Build: 1
LogDevObjectVersion: Number of dev versions registered: 20
LogDevObjectVersion:   Dev-Blueprints (B0D832E4-1F89-4F0D-ACCF-7EB736FD4AA2): 10
LogDevObjectVersion:   Dev-Build (E1C64328-A22C-4D53-A36C-8E866417BD8C): 0
LogDevObjectVersion:   Dev-Core (375EC13C-06E4-48FB-B500-84F0262A717E): 2
LogDevObjectVersion:   Dev-Editor (E4B068ED-F494-42E9-A231-DA0B2E46BB41): 24
LogDevObjectVersion:   Dev-Framework (CFFC743F-43B0-4480-9391-14DF171D2073): 34
LogDevObjectVersion:   Dev-Mobile (B02B49B5-BB20-44E9-A304-32B752E40360): 2
LogDevObjectVersion:   Dev-Networking (A4E4105C-59A1-49B5-A7C5-40C4547EDFEE): 0
LogDevObjectVersion:   Dev-Online (39C831C9-5AE6-47DC-9A44-9C173E1C8E7C): 0
LogDevObjectVersion:   Dev-Physics (78F01B33-EBEA-4F98-B9B4-84EACCB95AA2): 0
LogDevObjectVersion:   Dev-Platform (6631380F-2D4D-43E0-8009-CF276956A95A): 0
LogDevObjectVersion:   Dev-Rendering (12F88B9F-8875-4AFC-A67C-D90C383ABD29): 26
LogDevObjectVersion:   Dev-Sequencer (7B5AE74C-D270-4C10-A958-57980B212A5A): 9
LogDevObjectVersion:   Dev-VR (D7296918-1DD6-4BDD-9DE2-64A83CC13884): 2
LogDevObjectVersion:   Dev-LoadTimes (C2A15278-BFE7-4AFE-6C17-90FF531DF755): 1
LogDevObjectVersion:   Private-Geometry (6EACA3D4-40EC-4CC1-B786-8BED09428FC5): 3
LogDevObjectVersion:   Dev-AnimPhys (29E575DD-E0A3-4627-9D10-D276232CDCEA): 17
LogDevObjectVersion:   Dev-ReflectionCapture (6B266CEC-1EC7-4B8F-A30B-E4D90942FC07): 1
LogDevObjectVersion:   Dev-Automation (0DF73D61-A23F-47EA-B727-89E90C41499A): 1
LogDevObjectVersion:   FortniteMain (601D1886-AC64-4F84-AA16-D3DE0DEAC7D6): 12
LogDevObjectVersion:   Dev-Enterprise (9DFFBCD6-494F-0158-E221-12823C92A888): 1
LogStreaming: Display: Took  0.001s to delete old logs.
LogInit: Presizing for max 8388607 objects, including 0 objects not considered by GC, pre-allocating 0 bytes for permanent pool.
LogInit: Object subsystem initialized
[2023.01.09-19.43.25:747][  0]LogInit: Selected Device Profile: [Windows]
[2023.01.09-19.43.25:747][  0]LogInit: Applying CVar settings loaded from the selected device profile: [Windows]
[2023.01.09-19.43.25:759][  0]LogHAL: Display: Platform has ~ 32 GB [34007068672 / 34359738368 / 32], which maps to Largest [LargestMinGB=32, LargerMinGB=12, DefaultMinGB=8, SmallerMinGB=6, SmallestMinGB=0)
[2023.01.09-19.43.25:759][  0]LogInit: Setting Device Profile CVar: [[r.Vulkan.UseRealUBs:1]]
[2023.01.09-19.43.25:759][  0]LogInit: Going up to parent DeviceProfile []
[2023.01.09-19.43.25:759][  0]LogInit: Computer: DESKTOP-J0P5LQ2
[2023.01.09-19.43.25:759][  0]LogInit: User: tsuyoshi
[2023.01.09-19.43.25:759][  0]LogInit: CPU Page size=4096, Cores=4
[2023.01.09-19.43.25:759][  0]LogInit: High frequency timer resolution =10.000000 MHz
[2023.01.09-19.43.25:760][  0]LogMemory: Memory total: Physical=31.7GB (32GB approx)
[2023.01.09-19.43.25:760][  0]LogMemory: Platform Memory Stats for Windows
[2023.01.09-19.43.25:760][  0]LogMemory: Process Physical Memory: 109.36 MB used, 110.54 MB peak
[2023.01.09-19.43.25:760][  0]LogMemory: Process Virtual Memory: 91.92 MB used, 91.92 MB peak
[2023.01.09-19.43.25:760][  0]LogMemory: Physical Memory: 16321.78 MB used,  16109.89 MB free, 32431.67 MB total
[2023.01.09-19.43.25:760][  0]LogMemory: Virtual Memory: 4658.46 MB used,  16109.89 MB free, 134217728.00 MB total
[2023.01.09-19.43.25:777][  0]LogInit: Overriding language with editor language configuration option (ja).
[2023.01.09-19.43.25:777][  0]LogInit: Overriding locale with editor locale configuration option (ja).
[2023.01.09-19.43.26:428][  0]LogStreaming: Display: Took  0.650s to InitEngineTextLocalization.
[2023.01.09-19.43.26:428][  0]LogInit: Setting process to per monitor DPI aware
[2023.01.09-19.43.26:493][  0]LogSlate: New Slate User Created.  User Index 0, Is Virtual User: 0
[2023.01.09-19.43.26:493][  0]LogSlate: Slate User Registered.  User Index 0, Is Virtual User: 0
[2023.01.09-19.43.26:750][  0]LogHMD: Failed to initialize OpenVR with code 110
[2023.01.09-19.43.26:750][  0]LogD3D11RHI: D3D11 adapters:
[2023.01.09-19.43.27:082][  0]LogD3D11RHI:    0. 'Intel(R) Iris(R) Xe Graphics' (Feature Level 11_0)
[2023.01.09-19.43.27:082][  0]LogD3D11RHI:       128/0/16215 MB DedicatedVideo/DedicatedSystem/SharedSystem, Outputs:3, VendorId:0x8086
[2023.01.09-19.43.27:374][  0]LogD3D11RHI:    1. 'Intel(R) Iris(R) Xe Graphics' (Feature Level 11_0)
[2023.01.09-19.43.27:374][  0]LogD3D11RHI:       128/0/16215 MB DedicatedVideo/DedicatedSystem/SharedSystem, Outputs:0, VendorId:0x8086
[2023.01.09-19.43.27:377][  0]LogD3D11RHI:    2. 'Microsoft Basic Render Driver' (Feature Level 11_0)
[2023.01.09-19.43.27:377][  0]LogD3D11RHI:       0/0/16215 MB DedicatedVideo/DedicatedSystem/SharedSystem, Outputs:0, VendorId:0x1414
[2023.01.09-19.43.27:377][  0]LogD3D11RHI: Chosen D3D11 Adapter: 0
[2023.01.09-19.43.27:390][  0]LogD3D11RHI: Creating new Direct3DDevice
[2023.01.09-19.43.27:390][  0]LogD3D11RHI:     GPU DeviceId: 0x9a49 (for the marketing name, search the web for "GPU Device Id")
[2023.01.09-19.43.27:390][  0]LogWindows: EnumDisplayDevices:
[2023.01.09-19.43.27:390][  0]LogWindows:    0. 'Intel(R) Iris(R) Xe Graphics' (P:1 D:1)
[2023.01.09-19.43.27:390][  0]LogWindows:    1. 'Intel(R) Iris(R) Xe Graphics' (P:0 D:0)
[2023.01.09-19.43.27:391][  0]LogWindows:    2. 'Intel(R) Iris(R) Xe Graphics' (P:0 D:0)
[2023.01.09-19.43.27:391][  0]LogWindows:    3. 'Intel(R) Iris(R) Xe Graphics' (P:0 D:0)
[2023.01.09-19.43.27:391][  0]LogWindows:    4. 'DisplayLink USB Device' (P:0 D:1)
[2023.01.09-19.43.27:391][  0]LogWindows:    5. 'DisplayLink USB Device' (P:0 D:1)
[2023.01.09-19.43.27:393][  0]LogWindows: DebugString: GetVideoDriverDetailsInvalid PrimaryIsNotTheChoosenAdapter GetVideoDriverDetailsInvalid PrimaryIsNotTheChoosenAdapter FoundDriverCount:4 
[2023.01.09-19.43.27:393][  0]LogD3D11RHI:     Adapter Name: Intel(R) Iris(R) Xe Graphics
[2023.01.09-19.43.27:393][  0]LogD3D11RHI:   Driver Version: 27.20.100.9365 (internal:27.20.100.9365, unified:27.20.100.9365)
[2023.01.09-19.43.27:393][  0]LogD3D11RHI:      Driver Date: 3-10-2021
[2023.01.09-19.43.27:393][  0]LogRHI: Texture pool is 1523 MB (70% of 2176 MB)
[2023.01.09-19.43.27:622][  0]LogD3D11RHI: Async texture creation enabled
[2023.01.09-19.43.27:641][  0]LogD3D11RHI: GPU Timing Frequency: 19.200000 (Debug: 2 0)
[2023.01.09-19.43.27:643][  0]LogShaderCompilers: Guid format shader working directory is -50 characters bigger than the processId version (../../../../../../Users/tsuyoshi/Documents/TechStaDoc/ts_ue4_stu_202211/90_FinalProject/FireEscape/Intermediate/Shaders/WorkingDirectory/29484/).
[2023.01.09-19.43.27:643][  0]LogShaderCompilers: Cleaned the shader compiler working directory 'C:/Users/tsuyoshi/AppData/Local/Temp/UnrealShaderWorkingDir/B31CA2134ECF504062D16087BA294991/'.
[2023.01.09-19.43.27:910][  0]LogTemp: Display: Loaded TP AllDesktopTargetPlatform
[2023.01.09-19.43.27:923][  0]LogTemp: Display: Loaded TP MacClientTargetPlatform
[2023.01.09-19.43.27:937][  0]LogTemp: Display: Loaded TP MacNoEditorTargetPlatform
[2023.01.09-19.43.27:952][  0]LogTemp: Display: Loaded TP MacServerTargetPlatform
[2023.01.09-19.43.27:967][  0]LogTemp: Display: Loaded TP MacTargetPlatform
[2023.01.09-19.43.27:981][  0]LogTemp: Display: Loaded TP WindowsClientTargetPlatform
[2023.01.09-19.43.27:995][  0]LogTemp: Display: Loaded TP WindowsNoEditorTargetPlatform
[2023.01.09-19.43.28:010][  0]LogTemp: Display: Loaded TP WindowsServerTargetPlatform
[2023.01.09-19.43.28:016][  0]LogTemp: Display: Loaded TP WindowsTargetPlatform
[2023.01.09-19.43.28:087][  0]LogTemp: Display: Loaded TP AndroidTargetPlatform
[2023.01.09-19.43.28:087][  0]LogTemp: Display: Loaded TP AndroidTargetPlatform
[2023.01.09-19.43.28:087][  0]LogTemp: Display: Loaded TP AndroidTargetPlatform
[2023.01.09-19.43.28:087][  0]LogTemp: Display: Loaded TP AndroidTargetPlatform
[2023.01.09-19.43.28:087][  0]LogTemp: Display: Loaded TP AndroidTargetPlatform
[2023.01.09-19.43.28:087][  0]LogTemp: Display: Loaded TP AndroidTargetPlatform
[2023.01.09-19.43.28:087][  0]LogTemp: Display: Loaded TP AndroidTargetPlatform
[2023.01.09-19.43.28:087][  0]LogTemp: Display: Loaded TP AndroidTargetPlatform
[2023.01.09-19.43.28:087][  0]LogTemp: Display: Loaded TP AndroidTargetPlatform
[2023.01.09-19.43.28:087][  0]LogTemp: Display: Loaded TP AndroidTargetPlatform
[2023.01.09-19.43.28:087][  0]LogTemp: Display: Loaded TP AndroidTargetPlatform
[2023.01.09-19.43.28:088][  0]LogTemp: Display: Loaded TP AndroidTargetPlatform
[2023.01.09-19.43.28:088][  0]LogTemp: Display: Loaded TP AndroidTargetPlatform
[2023.01.09-19.43.28:088][  0]LogTemp: Display: Loaded TP AndroidTargetPlatform
[2023.01.09-19.43.28:088][  0]LogTemp: Display: Loaded TP AndroidTargetPlatform
[2023.01.09-19.43.28:088][  0]LogTemp: Display: Loaded TP AndroidTargetPlatform
[2023.01.09-19.43.28:088][  0]LogTemp: Display: Loaded TP AndroidTargetPlatform
[2023.01.09-19.43.28:088][  0]LogTemp: Display: Loaded TP AndroidTargetPlatform
[2023.01.09-19.43.28:089][  0]LogTemp: Display: Loaded TP HTML5TargetPlatform
[2023.01.09-19.43.28:153][  0]LogTemp: Display: Loaded TP IOSTargetPlatform
[2023.01.09-19.43.28:153][  0]LogTemp: Display: Loaded TP IOSTargetPlatform
[2023.01.09-19.43.28:177][  0]LogTemp: Display: Loaded TP TVOSTargetPlatform
[2023.01.09-19.43.28:177][  0]LogTemp: Display: Loaded TP TVOSTargetPlatform
[2023.01.09-19.43.28:192][  0]LogTemp: Display: Loaded TP LinuxClientTargetPlatform
[2023.01.09-19.43.28:205][  0]LogTemp: Display: Loaded TP LinuxNoEditorTargetPlatform
[2023.01.09-19.43.28:218][  0]LogTemp: Display: Loaded TP LinuxServerTargetPlatform
[2023.01.09-19.43.28:232][  0]LogTemp: Display: Loaded TP LinuxTargetPlatform
[2023.01.09-19.43.28:240][  0]LogTemp: Display: Loaded TP LuminTargetPlatform
[2023.01.09-19.43.28:240][  0]LogTargetPlatformManager: Display: Building Assets For Windows
[2023.01.09-19.43.28:299][  0]LogXGEController: Cannot use XGE Controller as Incredibuild is not installed on this machine.
[2023.01.09-19.43.28:299][  0]LogShaderCompilers: Cannot use XGE Shader Compiler as Incredibuild is not installed on this machine.
[2023.01.09-19.43.28:299][  0]LogShaderCompilers: Display: Using Local Shader Compiler.
[2023.01.09-19.43.29:012][  0]LogDerivedDataCache: Display: Max Cache Size: 512 MB
[2023.01.09-19.43.29:065][  0]LogDerivedDataCache: Loaded boot cache 0.05s 74MB C:/Users/tsuyoshi/AppData/Local/UnrealEngine/4.20/DerivedDataCache/Boot.ddc.
[2023.01.09-19.43.29:065][  0]LogDerivedDataCache: Display: Loaded Boot cache: C:/Users/tsuyoshi/AppData/Local/UnrealEngine/4.20/DerivedDataCache/Boot.ddc
[2023.01.09-19.43.29:065][  0]LogDerivedDataCache: FDerivedDataBackendGraph:  Pak pak cache file ../../../../../../Users/tsuyoshi/Documents/TechStaDoc/ts_ue4_stu_202211/90_FinalProject/FireEscape/DerivedDataCache/DDC.ddp not found, will not use a pak cache.
[2023.01.09-19.43.29:065][  0]LogDerivedDataCache: Unable to find inner node Pak for hierarchical cache Hierarchy.
[2023.01.09-19.43.29:066][  0]LogDerivedDataCache: FDerivedDataBackendGraph:  CompressedPak pak cache file ../../../../../../Users/tsuyoshi/Documents/TechStaDoc/ts_ue4_stu_202211/90_FinalProject/FireEscape/DerivedDataCache/Compressed.ddp not found, will not use a pak cache.
[2023.01.09-19.43.29:066][  0]LogDerivedDataCache: Unable to find inner node CompressedPak for hierarchical cache Hierarchy.
[2023.01.09-19.43.29:079][  0]LogDerivedDataCache: Display: Pak cache opened for reading ../../../Engine/DerivedDataCache/Compressed.ddp.
[2023.01.09-19.43.29:092][  0]LogDerivedDataCache: Using Local data cache path C:/Users/tsuyoshi/AppData/Local/UnrealEngine/Common/DerivedDataCache: Writable
[2023.01.09-19.43.29:092][  0]LogDerivedDataCache: Shared data cache path not found in *engine.ini, will not use an Shared cache.
[2023.01.09-19.43.29:092][  0]LogDerivedDataCache: Unable to find inner node Shared for hierarchical cache Hierarchy.
[2023.01.09-19.43.29:109][  0]LogMaterial: Verifying Global Shaders for PCD3D_SM5
[2023.01.09-19.43.29:110][  0]LogSlate: Using FreeType 2.6.0
[2023.01.09-19.43.29:111][  0]LogSlate: SlateFontServices - WITH_FREETYPE: 1, WITH_HARFBUZZ: 1
[2023.01.09-19.43.29:185][  0]LogAssetRegistry: FAssetRegistry took 0.0275 seconds to start up
[2023.01.09-19.43.29:485][  0]LogInit: Selected Device Profile: [Windows]
[2023.01.09-19.43.29:629][  0]LogSimplygon: Simplygon DLL not present - disabling.
[2023.01.09-19.43.29:632][  0]LogMeshReduction: Using SimplygonSwarm for distributed automatic mesh merging
[2023.01.09-19.43.29:632][  0]LogMeshReduction: Using ProxyLODMeshReduction for automatic mesh merging
[2023.01.09-19.43.29:632][  0]LogMeshReduction: Using QuadricMeshReduction for automatic static mesh reduction
[2023.01.09-19.43.29:632][  0]LogMeshReduction: No automatic skeletal mesh reduction module available
[2023.01.09-19.43.29:649][  0]LogNetVersion: FireEscape 1.0.0, NetCL: 4212847, EngineNetVer: 5, GameNetVer: 0 (Checksum: 1710522744)
[2023.01.09-19.43.30:077][  0]LogPackageLocalizationCache: Processed 11 localized package path(s) for 1 prioritized culture(s) in 0.044540 seconds
[2023.01.09-19.43.30:083][  0]LogUObjectArray: 38425 objects as part of root set at end of initial load.
[2023.01.09-19.43.30:083][  0]LogUObjectAllocator: 6690864 out of 0 bytes used by permanent object pool.
[2023.01.09-19.43.30:083][  0]LogUObjectArray: CloseDisregardForGC: 0/0 objects in disregard for GC pool
[2023.01.09-19.43.30:866][  0]LogTcpMessaging: Initializing TcpMessaging bridge
[2023.01.09-19.43.30:878][  0]LogUdpMessaging: Initializing bridge on interface 0.0.0.0:0 to multicast group 230.0.0.1:6666.
[2023.01.09-19.43.31:193][  0]SourceControl: ソースコントロールは無効です
[2023.01.09-19.43.31:193][  0]SourceControl: ソースコントロールは無効です
[2023.01.09-19.43.31:195][  0]SourceControl: ソースコントロールは無効です
[2023.01.09-19.43.31:195][  0]SourceControl: ソースコントロールは無効です
[2023.01.09-19.43.31:360][  0]LogAndroidPermission: UAndroidPermissionCallbackProxy::GetInstance
[2023.01.09-19.43.31:419][  0]LogOcInput: OculusInput pre-init called
[2023.01.09-19.43.31:469][  0]LogEngine: Initializing Engine...
[2023.01.09-19.43.31:469][  0]LogHMD: Failed to initialize OpenVR with code 110
[2023.01.09-19.43.31:472][  0]LogStats: UGameplayTagsManager::ConstructGameplayTagTree: ImportINI prefixes -  0.000 s
[2023.01.09-19.43.31:472][  0]LogStats: UGameplayTagsManager::ConstructGameplayTagTree: Construct from data asset -  0.000 s
[2023.01.09-19.43.31:472][  0]LogStats: UGameplayTagsManager::ConstructGameplayTagTree: ImportINI -  0.000 s
[2023.01.09-19.43.31:472][  0]LogStats: UGameplayTagsManager::ConstructGameplayTagTree: GameplayTagTreeChangedEvent.Broadcast -  0.000 s
[2023.01.09-19.43.31:635][  0]LogInit: Initializing FReadOnlyCVARCache
[2023.01.09-19.43.31:649][  0]LogAIModule: Creating AISystem for world Untitled
[2023.01.09-19.43.31:662][  0]LogInit: XAudio2 using 'スピーカー (DisplayLink Audio)' : 2 channels at 48 kHz using 16 bits per sample (channel mask 0x3)
[2023.01.09-19.43.31:671][  0]LogInit: FAudioDevice initialized.
[2023.01.09-19.43.31:672][  0]LogNetVersion: Set ProjectVersion to 1.0.0.0. Version Checksum will be recalculated on next use.
[2023.01.09-19.43.31:722][  0]LogDerivedDataCache: Saved boot cache 0.05s 74MB C:/Users/tsuyoshi/AppData/Local/UnrealEngine/4.20/DerivedDataCache/Boot.ddc.
[2023.01.09-19.43.31:728][  0]LogInit: Texture streaming: Enabled
[2023.01.09-19.43.31:746][  0]LogEngineSessionManager: EngineSessionManager initialized
[2023.01.09-19.43.31:762][  0]LogInit: Transaction tracking system initialized
[2023.01.09-19.43.31:785][  0]BlueprintLog: New page: エディタの読み込み
[2023.01.09-19.43.31:910][  0]LocalizationService: ローカライズのサービスが無効になりました
[2023.01.09-19.43.32:128][  0]LogCook: Display: Max memory allowance for cook 16384mb min free memory 0mb
[2023.01.09-19.43.32:128][  0]LogCook: Display: Mobile HDR setting 1
[2023.01.09-19.43.32:128][  0]LogGameplayTags: Display: UGameplayTagsManager::DoneAddingNativeTags. DelegateIsBound: 0
[2023.01.09-19.43.32:128][  0]LogStats: UGameplayTagsManager::ConstructGameplayTagTree: ImportINI prefixes -  0.000 s
[2023.01.09-19.43.32:128][  0]LogStats: UGameplayTagsManager::ConstructGameplayTagTree: Construct from data asset -  0.000 s
[2023.01.09-19.43.32:128][  0]LogStats: UGameplayTagsManager::ConstructGameplayTagTree: ImportINI -  0.000 s
[2023.01.09-19.43.32:128][  0]LogStats: UGameplayTagsManager::ConstructGameplayTagTree: GameplayTagTreeChangedEvent.Broadcast -  0.000 s
[2023.01.09-19.43.32:241][  0]LogFileCache: Scanning file cache for directory 'C:/Users/tsuyoshi/Documents/TechStaDoc/ts_ue4_stu_202211/90_FinalProject/FireEscape/Content/' took 0.02s
[2023.01.09-19.43.32:241][  0]SourceControl: ソースコントロールは無効です
[2023.01.09-19.43.32:242][  0]LightingResults: New page: ライティングのビルド
[2023.01.09-19.43.32:245][  0]MapCheck: New page: マップをチェック
[2023.01.09-19.43.32:245][  0]LightingResults: New page: <何も選択されていません>
[2023.01.09-19.43.32:817][  0]LogAIModule: Creating AISystem for world ThirdPersonExampleMap
[2023.01.09-19.43.32:881][  0]LogEditorServer: Finished looking for orphan Actors (0.000 secs)
[2023.01.09-19.43.32:986][  0]Cmd: MAP CHECKDEP NOCLEARLOG
[2023.01.09-19.43.33:069][  0]MapCheck: マップチェックが完了: 0 エラー、 0 警告、完了に 81.262ミリ秒かかりました。
[2023.01.09-19.43.33:069][  0]LogFileHelpers: Loading map 'ThirdPersonExampleMap' took 0.827
[2023.01.09-19.43.33:158][  0]LogWindowsTextInputMethodSystem: Display: IME system now activated using TSF (Microsoft IME).
[2023.01.09-19.43.33:198][  0]LogSlate: Updating window title bar state: overlay mode, drag disabled, window buttons hidden, title bar hidden
[2023.01.09-19.43.33:207][  0]LogSlate: Updating window title bar state: overlay mode, drag disabled, window buttons hidden, title bar hidden
[2023.01.09-19.43.33:214][  0]LogSlate: Updating window title bar state: overlay mode, drag disabled, window buttons hidden, title bar hidden
[2023.01.09-19.43.33:223][  0]LogSlate: Updating window title bar state: overlay mode, drag disabled, window buttons hidden, title bar hidden
[2023.01.09-19.43.33:229][  0]LogCollectionManager: Loaded 0 collections in 0.001611 seconds
[2023.01.09-19.43.33:272][  0]LogFileCache: Scanning file cache for directory 'C:/Users/tsuyoshi/Documents/TechStaDoc/ts_ue4_stu_202211/90_FinalProject/FireEscape/Saved/Collections/' took 0.01s
[2023.01.09-19.43.33:272][  0]LogFileCache: Scanning file cache for directory 'C:/Users/tsuyoshi/Documents/TechStaDoc/ts_ue4_stu_202211/90_FinalProject/FireEscape/Content/Developers/tsuyoshi/Collections/' took 0.01s
[2023.01.09-19.43.33:272][  0]LogFileCache: Scanning file cache for directory 'C:/Users/tsuyoshi/Documents/TechStaDoc/ts_ue4_stu_202211/90_FinalProject/FireEscape/Content/Collections/' took 0.01s
[2023.01.09-19.43.33:272][  0]LogCollectionManager: Rebuilt the GUID cache for 0 collections in 0.000000 seconds
[2023.01.09-19.43.33:282][  0]LogContentBrowser: Native class hierarchy populated in 0.0101 seconds. Added 2589 classes and 610 folders.
[2023.01.09-19.43.33:290][  0]LogContentBrowser: Native class hierarchy updated for 'WidgetCarousel' in 0.0004 seconds. Added 0 classes and 0 folders.
[2023.01.09-19.43.33:336][  0]LogContentBrowser: Native class hierarchy updated for 'AddContentDialog' in 0.0005 seconds. Added 0 classes and 0 folders.
[2023.01.09-19.43.33:343][  0]LogContentBrowser: Native class hierarchy updated for 'SceneOutliner' in 0.0004 seconds. Added 1 classes and 2 folders.
[2023.01.09-19.43.33:367][  0]LogSlate: Took 0.000262 seconds to synchronously load lazily loaded font '../../../Engine/Content/Slate/Fonts/Roboto-Regular.ttf' (155K)
[2023.01.09-19.43.33:377][  0]LogSlate: Took 0.000564 seconds to synchronously load lazily loaded font '../../../Engine/Content/Editor/Slate/Fonts/GenEiGothicPro-Regular.otf' (707K)
[2023.01.09-19.43.34:833][  0]LogSlate: Only BGRA pngs, bmps or icos are supported in by External Image Picker
[2023.01.09-19.43.34:880][  0]LogSlate: Took 0.000552 seconds to synchronously load lazily loaded font '../../../Engine/Content/Editor/Slate/Fonts/GenEiGothicPro-Bold.otf' (698K)
[2023.01.09-19.43.34:880][  0]LogSlate: Took 0.000187 seconds to synchronously load lazily loaded font '../../../Engine/Content/Slate/Fonts/Roboto-Bold.ttf' (160K)
[2023.01.09-19.43.34:885][  0]LogSlate: Took 0.000217 seconds to synchronously load lazily loaded font '../../../Engine/Content/Editor/Slate/Fonts/FontAwesome.ttf' (139K)
[2023.01.09-19.43.35:020][  0]LogTemp: Executing iPhonePackager certificates Engine -bundlename com.YourCompany.FireEscape
[2023.01.09-19.43.35:020][  0]LogTemp: CWD: C:\Program Files\Epic Games\UE_4.20\Engine\Binaries\DotNET\IOS
[2023.01.09-19.43.35:020][  0]LogTemp: Initial Dir: C:\Program Files\Epic Games\UE_4.20
[2023.01.09-19.43.35:020][  0]LogTemp: Env CWD: C:\Program Files\Epic Games\UE_4.20\Engine\Binaries\DotNET\IOS
[2023.01.09-19.43.35:020][  0]LogTemp: BranchPath = DESKTOP-J0P5LQ2/C/Program Files/Epic Games/UE_4.20/Engine/Binaries --- GameBranchPath = DESKTOP-J0P5LQ2/C/Program Files/Epic Games/UE_4.20/Engine/Binaries
[2023.01.09-19.43.35:020][  0]LogRenderer: Reallocating scene render targets to support 836x492 Format 10 NumSamples 1 (Frame:1).
[2023.01.09-19.43.35:325][  0]LogTemp: IPP ERROR: Could not find provision directory 'C:\Users\tsuyoshi\AppData\Local/Apple Computer/MobileDevice/Provisioning Profiles/'.
[2023.01.09-19.43.35:345][  0]LogContentBrowser: Native class hierarchy updated for 'HierarchicalLODOutliner' in 0.0008 seconds. Added 0 classes and 0 folders.
[2023.01.09-19.43.35:346][  0]LogLoad: (Engine Initialization) Total time: 12.26 seconds
[2023.01.09-19.43.35:346][  0]LogLoad: (Engine Initialization) Total Blueprint compile time: 0.00 seconds
[2023.01.09-19.43.35:407][  0]LogContentStreaming: Texture pool size now 1000 MB
[2023.01.09-19.43.35:548][  2]LogAssetRegistry: Asset discovery search completed in 6.3866 seconds
[2023.01.09-19.43.35:551][  2]LogCollectionManager: Rebuilt the object cache for 0 collections in 0.000001 seconds (found 0 objects)
[2023.01.09-19.43.35:552][  2]LogCollectionManager: Fixed up redirectors for 0 collections in 0.000168 seconds (updated 0 objects)
[2023.01.09-19.43.36:440][ 22]LogSlate: Took 0.001101 seconds to synchronously load lazily loaded font '../../../Engine/Content/Editor/Slate/Fonts/GenEiGothicPro-Light.otf' (713K)
[2023.01.09-19.43.36:440][ 22]LogSlate: Took 0.000346 seconds to synchronously load lazily loaded font '../../../Engine/Content/Slate/Fonts/Roboto-Light.ttf' (167K)
[2023.01.09-19.43.40:537][205]LogSlate: FSceneViewport::OnFocusLost() reason 0
[2023.01.09-19.43.40:896][217]LogAIModule: Creating AISystem for world TitleLevel
[2023.01.09-19.43.40:920][217]LogAssetEditorManager: Opening Asset editor for World /Game/ThirdPersonCPP/Maps/TitleLevel.TitleLevel
[2023.01.09-19.43.40:967][217]Cmd: MAP LOAD FILE="../../../../../../Users/tsuyoshi/Documents/TechStaDoc/ts_ue4_stu_202211/90_FinalProject/FireEscape/Content/ThirdPersonCPP/Maps/TitleLevel.umap" TEMPLATE=0 SHOWPROGRESS=1 FEATURELEVEL=3
[2023.01.09-19.43.40:967][217]LightingResults: New page: ライティングのビルド
[2023.01.09-19.43.40:969][217]LoadErrors: New page: マップをロード中: TitleLevel.umap
[2023.01.09-19.43.40:973][217]MapCheck: New page: マップをチェック
[2023.01.09-19.43.40:973][217]LightingResults: New page: <何も選択されていません>
[2023.01.09-19.43.41:027][217]LogEditorServer: Finished looking for orphan Actors (0.000 secs)
[2023.01.09-19.43.41:113][217]Cmd: MAP CHECKDEP NOCLEARLOG
[2023.01.09-19.43.41:220][217]MapCheck: マップチェックが完了: 0 エラー、 0 警告、完了に 105.85ミリ秒かかりました。
[2023.01.09-19.43.41:221][217]LogFileHelpers: Loading map 'TitleLevel' took 0.256
[2023.01.09-19.43.44:407][390]LogTemp: Repeating last play command: 選択ビューポート
[2023.01.09-19.43.44:429][390]LogBlueprintUserMessages: Early PlayInEditor Detection: Level '/Game/ThirdPersonCPP/Maps/TitleLevel.TitleLevel:PersistentLevel' has LevelScriptBlueprint '/Game/ThirdPersonCPP/Maps/TitleLevel.TitleLevel:PersistentLevel.TitleLevel' with GeneratedClass '/Game/ThirdPersonCPP/Maps/TitleLevel.TitleLevel_C' with ClassGeneratedBy '/Game/ThirdPersonCPP/Maps/TitleLevel.TitleLevel:PersistentLevel.TitleLevel'
[2023.01.09-19.43.44:429][390]LogPlayLevel: PlayLevel: No blueprints needed recompiling
[2023.01.09-19.43.44:442][390]PIE: New page: PIEセッション: TitleLevel (2023/01/10 13:43:44)
[2023.01.09-19.43.44:443][390]LogPlayLevel: Creating play world package: /Game/ThirdPersonCPP/Maps/UEDPIE_0_TitleLevel
[2023.01.09-19.43.44:446][390]LogPlayLevel: PIE: StaticDuplicateObject took: (0.002912s)
[2023.01.09-19.43.44:447][390]LogAIModule: Creating AISystem for world TitleLevel
[2023.01.09-19.43.44:447][390]LogPlayLevel: PIE: World Init took: (0.000912s)
[2023.01.09-19.43.44:447][390]LogPlayLevel: PIE: Created PIE world by copying editor world from /Game/ThirdPersonCPP/Maps/TitleLevel.TitleLevel to /Game/ThirdPersonCPP/Maps/UEDPIE_0_TitleLevel.TitleLevel (0.004032s)
[2023.01.09-19.43.44:491][390]LogInit: XAudio2 using 'スピーカー (DisplayLink Audio)' : 2 channels at 48 kHz using 16 bits per sample (channel mask 0x3)
[2023.01.09-19.43.44:502][390]LogInit: FAudioDevice initialized.
[2023.01.09-19.43.44:553][390]LogLoad: Game class is 'FEGM_BP_C'
[2023.01.09-19.43.44:558][390]LogWorld: Bringing World /Game/ThirdPersonCPP/Maps/UEDPIE_0_TitleLevel.TitleLevel up for play (max tick rate 60) at 2023.01.10-04.43.44
[2023.01.09-19.43.44:559][390]LogWorld: Bringing up level for play took: 0.001800
[2023.01.09-19.43.44:577][390]LogContentBrowser: Native class hierarchy updated for 'MovieSceneCapture' in 0.0005 seconds. Added 10 classes and 0 folders.
[2023.01.09-19.43.44:582][390]PIE: /Game/ThirdPersonCPP/Maps/UEDPIE_0_TitleLevel 0.437のプレイ イン エディタの開始時間
[2023.01.09-19.43.44:583][390]LogBlueprintUserMessages: Late PlayInEditor Detection: Level '/Game/ThirdPersonCPP/Maps/TitleLevel.TitleLevel:PersistentLevel' has LevelScriptBlueprint '/Game/ThirdPersonCPP/Maps/TitleLevel.TitleLevel:PersistentLevel.TitleLevel' with GeneratedClass '/Game/ThirdPersonCPP/Maps/TitleLevel.TitleLevel_C' with ClassGeneratedBy '/Game/ThirdPersonCPP/Maps/TitleLevel.TitleLevel:PersistentLevel.TitleLevel'
[2023.01.09-19.43.55:461][ 23]LogNet: Browse: /Game/ThirdPersonCPP/Maps/ThirdPersonExampleMap
[2023.01.09-19.43.55:462][ 23]LogLoad: LoadMap: /Game/ThirdPersonCPP/Maps/ThirdPersonExampleMap
[2023.01.09-19.43.55:971][ 23]LogAIModule: Creating AISystem for world ThirdPersonExampleMap
[2023.01.09-19.43.55:971][ 23]LogLoad: Game class is 'FEGM_BP_C'
[2023.01.09-19.43.56:045][ 23]LogWorld: Bringing World /Game/ThirdPersonCPP/Maps/UEDPIE_0_ThirdPersonExampleMap.ThirdPersonExampleMap up for play (max tick rate 60) at 2023.01.10-04.43.56
[2023.01.09-19.43.56:047][ 23]LogWorld: Bringing up level for play took: 0.074752
[2023.01.09-19.43.56:050][ 23]LogLoad: Took 0.587480 seconds to LoadMap(/Game/ThirdPersonCPP/Maps/ThirdPersonExampleMap)
[2023.01.09-19.44.52:021][776]LogTemp: You have Healed ItemHealHP2
[2023.01.09-19.44.52:021][776]LogTemp: Warning: C++ called
[2023.01.09-19.46.25:349][195]LogScript: Warning: Accessed None trying to read property K2Node_DynamicCast_AsFire_Escape_Character
	HP_HUD_C /Engine/Transient.UnrealEdEngine_0:GameInstance_0.HP_HUD_C_1
	Function /Game/Blueprints/HP_HUD.HP_HUD_C:Get_HP_Bar_FillColorAndOpacity_0:008F
[2023.01.09-19.46.25:349][195]LogScript: Warning: Accessed None trying to read property K2Node_DynamicCast_AsFire_Escape_Character
	HP_HUD_C /Engine/Transient.UnrealEdEngine_0:GameInstance_0.HP_HUD_C_1
	Function /Game/Blueprints/HP_HUD.HP_HUD_C:Get_HP_Bar_FillColorAndOpacity_0:01A0
[2023.01.09-19.46.25:350][195]LogScript: Warning: Accessed None trying to read property K2Node_DynamicCast_AsFire_Escape_Character
	HP_HUD_C /Engine/Transient.UnrealEdEngine_0:GameInstance_0.HP_HUD_C_1
	Function /Game/Blueprints/HP_HUD.HP_HUD_C:Get_HP_Bar_Percent_0:008F
[2023.01.09-19.46.25:365][196]LogScript: Warning: Accessed None trying to read property K2Node_DynamicCast_AsFire_Escape_Character
	HP_HUD_C /Engine/Transient.UnrealEdEngine_0:GameInstance_0.HP_HUD_C_1
	Function /Game/Blueprints/HP_HUD.HP_HUD_C:Get_HP_Bar_FillColorAndOpacity_0:008F
[2023.01.09-19.46.25:365][196]LogScript: Warning: Accessed None trying to read property K2Node_DynamicCast_AsFire_Escape_Character
	HP_HUD_C /Engine/Transient.UnrealEdEngine_0:GameInstance_0.HP_HUD_C_1
	Function /Game/Blueprints/HP_HUD.HP_HUD_C:Get_HP_Bar_FillColorAndOpacity_0:01A0
[2023.01.09-19.46.25:365][196]LogScript: Warning: Accessed None trying to read property K2Node_DynamicCast_AsFire_Escape_Character
	HP_HUD_C /Engine/Transient.UnrealEdEngine_0:GameInstance_0.HP_HUD_C_1
	Function /Game/Blueprints/HP_HUD.HP_HUD_C:Get_HP_Bar_Percent_0:008F
[2023.01.09-19.46.25:382][197]LogScript: Warning: Accessed None trying to read property K2Node_DynamicCast_AsFire_Escape_Character
	HP_HUD_C /Engine/Transient.UnrealEdEngine_0:GameInstance_0.HP_HUD_C_1
	Function /Game/Blueprints/HP_HUD.HP_HUD_C:Get_HP_Bar_FillColorAndOpacity_0:008F
[2023.01.09-19.46.25:382][197]LogScript: Warning: Accessed None trying to read property K2Node_DynamicCast_AsFire_Escape_Character
	HP_HUD_C /Engine/Transient.UnrealEdEngine_0:GameInstance_0.HP_HUD_C_1
	Function /Game/Blueprints/HP_HUD.HP_HUD_C:Get_HP_Bar_FillColorAndOpacity_0:01A0
[2023.01.09-19.46.25:382][197]LogScript: Warning: Accessed None trying to read property K2Node_DynamicCast_AsFire_Escape_Character
	HP_HUD_C /Engine/Transient.UnrealEdEngine_0:GameInstance_0.HP_HUD_C_1
	Function /Game/Blueprints/HP_HUD.HP_HUD_C:Get_HP_Bar_Percent_0:008F
[2023.01.09-19.46.25:398][198]LogScript: Warning: Accessed None trying to read property K2Node_DynamicCast_AsFire_Escape_Character
	HP_HUD_C /Engine/Transient.UnrealEdEngine_0:GameInstance_0.HP_HUD_C_1
	Function /Game/Blueprints/HP_HUD.HP_HUD_C:Get_HP_Bar_FillColorAndOpacity_0:008F
[2023.01.09-19.46.25:399][198]LogScript: Warning: Accessed None trying to read property K2Node_DynamicCast_AsFire_Escape_Character
	HP_HUD_C /Engine/Transient.UnrealEdEngine_0:GameInstance_0.HP_HUD_C_1
	Function /Game/Blueprints/HP_HUD.HP_HUD_C:Get_HP_Bar_FillColorAndOpacity_0:01A0
[2023.01.09-19.46.25:399][198]LogScript: Warning: Accessed None trying to read property K2Node_DynamicCast_AsFire_Escape_Character
	HP_HUD_C /Engine/Transient.UnrealEdEngine_0:GameInstance_0.HP_HUD_C_1
	Function /Game/Blueprints/HP_HUD.HP_HUD_C:Get_HP_Bar_Percent_0:008F
[2023.01.09-19.46.25:415][199]LogScript: Warning: Accessed None trying to read property K2Node_DynamicCast_AsFire_Escape_Character
	HP_HUD_C /Engine/Transient.UnrealEdEngine_0:GameInstance_0.HP_HUD_C_1
	Function /Game/Blueprints/HP_HUD.HP_HUD_C:Get_HP_Bar_FillColorAndOpacity_0:008F
[2023.01.09-19.46.25:415][199]LogScript: Warning: Accessed None trying to read property K2Node_DynamicCast_AsFire_Escape_Character
	HP_HUD_C /Engine/Transient.UnrealEdEngine_0:GameInstance_0.HP_HUD_C_1
	Function /Game/Blueprints/HP_HUD.HP_HUD_C:Get_HP_Bar_FillColorAndOpacity_0:01A0
[2023.01.09-19.46.25:415][199]LogScript: Warning: Accessed None trying to read property K2Node_DynamicCast_AsFire_Escape_Character
	HP_HUD_C /Engine/Transient.UnrealEdEngine_0:GameInstance_0.HP_HUD_C_1
	Function /Game/Blueprints/HP_HUD.HP_HUD_C:Get_HP_Bar_Percent_0:008F
[2023.01.09-19.46.25:431][200]LogScript: Warning: Accessed None trying to read property K2Node_DynamicCast_AsFire_Escape_Character
	HP_HUD_C /Engine/Transient.UnrealEdEngine_0:GameInstance_0.HP_HUD_C_1
	Function /Game/Blueprints/HP_HUD.HP_HUD_C:Get_HP_Bar_FillColorAndOpacity_0:008F
[2023.01.09-19.46.25:431][200]LogScript: Warning: Accessed None trying to read property K2Node_DynamicCast_AsFire_Escape_Character
	HP_HUD_C /Engine/Transient.UnrealEdEngine_0:GameInstance_0.HP_HUD_C_1
	Function /Game/Blueprints/HP_HUD.HP_HUD_C:Get_HP_Bar_FillColorAndOpacity_0:01A0
[2023.01.09-19.46.27:208][307]LogSlate: FSceneViewport::OnFocusLost() reason 2
[2023.01.09-19.46.29:171][424]LogBlueprintUserMessages: Early EndPlayMap Detection: Level '/Game/ThirdPersonCPP/Maps/TitleLevel.TitleLevel:PersistentLevel' has LevelScriptBlueprint '/Game/ThirdPersonCPP/Maps/TitleLevel.TitleLevel:PersistentLevel.TitleLevel' with GeneratedClass '/Game/ThirdPersonCPP/Maps/TitleLevel.TitleLevel_C' with ClassGeneratedBy '/Game/ThirdPersonCPP/Maps/TitleLevel.TitleLevel:PersistentLevel.TitleLevel'
[2023.01.09-19.46.29:172][424]LogSlate: Updating window title bar state: overlay mode, drag disabled, window buttons hidden, title bar hidden
[2023.01.09-19.46.29:212][424]LogPlayLevel: Display: Shutting down PIE online subsystems
[2023.01.09-19.46.29:212][424]LogBlueprintUserMessages: Late EndPlayMap Detection: Level '/Game/ThirdPersonCPP/Maps/TitleLevel.TitleLevel:PersistentLevel' has LevelScriptBlueprint '/Game/ThirdPersonCPP/Maps/TitleLevel.TitleLevel:PersistentLevel.TitleLevel' with GeneratedClass '/Game/ThirdPersonCPP/Maps/TitleLevel.TitleLevel_C' with ClassGeneratedBy '/Game/ThirdPersonCPP/Maps/TitleLevel.TitleLevel:PersistentLevel.TitleLevel'
[2023.01.09-19.46.29:242][424]LogSlate: Updating window title bar state: overlay mode, drag disabled, window buttons hidden, title bar hidden
[2023.01.09-19.46.29:277][426]LogPlayLevel: Display: Destroying online subsystem :Context_2
[2023.01.09-19.46.43:844][265]LogEditorViewport: Clicking on Actor (LMB): StaticMeshActor (Cube)
[2023.01.09-19.46.49:682][580]LogSlate: FSceneViewport::OnFocusLost() reason 0
[2023.01.09-19.46.50:120][589]LogAIModule: Creating AISystem for world ThirdPersonExampleMap
[2023.01.09-19.46.50:224][589]LogAssetEditorManager: Opening Asset editor for World /Game/ThirdPersonCPP/Maps/ThirdPersonExampleMap.ThirdPersonExampleMap
[2023.01.09-19.46.50:250][589]LightingResults: New page: ライティングのビルド
[2023.01.09-19.46.50:251][589]LoadErrors: New page: マップをロード中: ThirdPersonExampleMap.umap
[2023.01.09-19.46.50:253][589]MapCheck: New page: マップをチェック
[2023.01.09-19.46.50:253][589]LightingResults: New page: <何も選択されていません>
[2023.01.09-19.46.50:330][589]LogEditorServer: Finished looking for orphan Actors (0.000 secs)
[2023.01.09-19.46.50:478][589]Cmd: MAP CHECKDEP NOCLEARLOG
[2023.01.09-19.46.50:582][589]MapCheck: マップチェックが完了: 0 エラー、 0 警告、完了に 104.911ミリ秒かかりました。
[2023.01.09-19.46.50:582][589]LogFileHelpers: Loading map 'ThirdPersonExampleMap' took 0.334
[2023.01.09-19.47.03:589][165]LogSlate: Took 0.000401 seconds to synchronously load lazily loaded font '../../../Engine/Content/Slate/Fonts/Roboto-Italic.ttf' (157K)
[2023.01.09-19.47.08:752][381]MapCheck: New page: マップをチェック
[2023.01.09-19.47.08:776][381]Cmd: MAP REBUILD ALLVISIBLE
[2023.01.09-19.47.08:776][381]LogEditorServer: Rebuildmap Clear paths rebuilt
[2023.01.09-19.47.09:103][381]LogMaterial: Display: Missing cached shader map for material FDebugViewModeMaterialProxy MaterialInstanceDynamic_0, compiling. 
[2023.01.09-19.47.09:109][381]LogMaterial: Display: Missing cached shader map for material FDebugViewModeMaterialProxy BasicShapeMaterial, compiling. 
[2023.01.09-19.47.09:113][381]LogShaderCompilers: Display: Shaders left to compile 2
[2023.01.09-19.47.09:113][381]LogShaderCompilers: Display: Shaders left to compile 1
[2023.01.09-19.47.09:113][381]LogMaterial: Display: Missing cached shader map for material FDebugViewModeMaterialProxy M_Fire_SubUV, compiling. 
[2023.01.09-19.47.09:120][381]LogMaterial: Display: Missing cached shader map for material FDebugViewModeMaterialProxy M_smoke_subUV, compiling. 
[2023.01.09-19.47.09:125][381]LogMaterial: Display: Missing cached shader map for material FDebugViewModeMaterialProxy M_Radial_Gradient, compiling. 
[2023.01.09-19.47.09:131][381]LogShaderCompilers: Display: Shaders left to compile 2
[2023.01.09-19.47.09:131][381]LogShaderCompilers: Display: Shaders left to compile 1
[2023.01.09-19.47.09:132][381]LogMaterial: Display: Missing cached shader map for material FDebugViewModeMaterialProxy M_Heat_Distortion, compiling. 
[2023.01.09-19.47.09:138][381]LogMaterial: Display: Missing cached shader map for material FDebugViewModeMaterialProxy M_StatueGlass, compiling. 
[2023.01.09-19.47.09:145][381]LogMaterial: Display: Missing cached shader map for material FDebugViewModeMaterialProxy M_Statue, compiling. 
[2023.01.09-19.47.09:153][381]LogMaterial: Display: Missing cached shader map for material FDebugViewModeMaterialProxy DefaultTextMaterialOpaque, compiling. 
[2023.01.09-19.47.09:160][381]LogMaterial: Display: Missing cached shader map for material FDebugViewModeMaterialProxy M_Water_Lake, compiling. 
[2023.01.09-19.47.09:167][381]LogMaterial: Display: Missing cached shader map for material FDebugViewModeMaterialProxy CubeMaterial, compiling. 
[2023.01.09-19.47.09:173][381]LogMaterial: Display: Missing cached shader map for material FDebugViewModeMaterialProxy WorldGridMaterial, compiling. Is special engine material.
[2023.01.09-19.47.09:182][381]LogMaterial: Display: Missing cached shader map for material FDebugViewModeMaterialProxy M_Basic_Wall, compiling. 
[2023.01.09-19.47.09:187][381]LogMaterial: Display: Missing cached shader map for material FDebugViewModeMaterialProxy RampMaterial, compiling. 
[2023.01.09-19.47.09:195][381]LogMaterial: Display: Missing cached shader map for material FDebugViewModeMaterialProxy MaterialInstanceDynamic_0, compiling. 
[2023.01.09-19.47.09:205][381]LogMaterial: Display: Missing cached shader map for material FDebugViewModeMaterialProxy M_UE4Man_ChestLogo, compiling. 
[2023.01.09-19.47.09:213][381]LogMaterial: Display: Missing cached shader map for material FDebugViewModeMaterialProxy MatineeCam_mat, compiling. 
[2023.01.09-19.47.10:548][381]LogShaderCompilers: Display: Shaders left to compile 13
[2023.01.09-19.47.10:548][381]LogShaderCompilers: Display: Shaders left to compile 12
[2023.01.09-19.47.10:548][381]LogShaderCompilers: Display: Shaders left to compile 11
[2023.01.09-19.47.10:548][381]LogShaderCompilers: Display: Shaders left to compile 10
[2023.01.09-19.47.10:548][381]LogShaderCompilers: Display: Shaders left to compile 9
[2023.01.09-19.47.10:548][381]LogShaderCompilers: Display: Shaders left to compile 8
[2023.01.09-19.47.10:548][381]LogShaderCompilers: Display: Shaders left to compile 7
[2023.01.09-19.47.10:548][381]LogShaderCompilers: Display: Shaders left to compile 6
[2023.01.09-19.47.10:548][381]LogShaderCompilers: Display: Shaders left to compile 5
[2023.01.09-19.47.10:548][381]LogShaderCompilers: Display: Shaders left to compile 4
[2023.01.09-19.47.10:548][381]LogShaderCompilers: Display: Shaders left to compile 3
[2023.01.09-19.47.10:548][381]LogShaderCompilers: Display: Shaders left to compile 2
[2023.01.09-19.47.10:548][381]LogShaderCompilers: Display: Shaders left to compile 1
[2023.01.09-19.47.10:548][381]TextureStreamingBuild: Display: Compiling optional shaders took 1.448 seconds.
[2023.01.09-19.47.10:584][381]LogLevel: Display: Export Material TexCoord Scales took 0.036 seconds.
[2023.01.09-19.47.10:626][381]TextureStreamingBuild: Display: Build Texture Streaming took 0.041 seconds.
[2023.01.09-19.47.10:651][381]LightingResults: New page: ライティングのビルド - 2023/01/10 13:47:10
[2023.01.09-19.47.10:694][381]LogSwarmInterface: [OpenConnection] Registering TCP channel ...
[2023.01.09-19.47.10:784][381]LogSwarmInterface: [OpenConnection] Connecting to agent ...
[2023.01.09-19.47.10:797][381]LogSwarmInterface: [TryOpenConnection] Testing the Agent
[2023.01.09-19.47.11:309][381]LogSwarmInterface: [TryOpenConnection] Opening Connection to Agent
[2023.01.09-19.47.11:309][381]LogSwarmInterface: [TryOpenConnection] Local Process ID is 29484
[2023.01.09-19.47.23:039][381]LogStaticLightingSystem: Running Lightmass w/ ImmediateImport mode ENABLED
[2023.01.09-19.47.23:039][381]LogStaticLightingSystem: Running Lightmass w/ ImmediateProcess mode ENABLED
[2023.01.09-19.47.23:039][381]LogStaticLightingSystem: Running Lightmass w/ Sorting mode ENABLED
[2023.01.09-19.47.23:039][381]LogStaticLightingSystem: Running Lightmass w/ Mapping paddings ENABLED
[2023.01.09-19.47.23:039][381]LogStaticLightingSystem: Running Lightmass w/ Mapping debug paddings DISABLED
[2023.01.09-19.47.23:293][381]Cmd: MAP CHECK DONTDISPLAYDIALOG
[2023.01.09-19.47.23:293][381]MapCheck: New page: ThirdPersonExampleMap - 2023/01/10 13:47:23
[2023.01.09-19.47.23:294][381]MapCheck: Error: WorldInfo_0 マップはライティングの再ビルドが必要です 
[2023.01.09-19.47.23:294][381]MapCheck: Warning: Fireball1_6 スタティックメッシュアクタに NULL のStaticMesh プロパティがあります 
[2023.01.09-19.47.23:294][381]MapCheck: Warning: Fireball2_8 スタティックメッシュアクタに NULL のStaticMesh プロパティがあります 
[2023.01.09-19.47.23:294][381]MapCheck: Warning: Fireball3_10 スタティックメッシュアクタに NULL のStaticMesh プロパティがあります 
[2023.01.09-19.47.23:294][381]MapCheck: Warning: Fireball4_12 スタティックメッシュアクタに NULL のStaticMesh プロパティがあります 
[2023.01.09-19.47.23:294][381]MapCheck: Warning: Fireball5_14 スタティックメッシュアクタに NULL のStaticMesh プロパティがあります 
[2023.01.09-19.47.23:294][381]MapCheck: Warning: Fireball6 スタティックメッシュアクタに NULL のStaticMesh プロパティがあります 
[2023.01.09-19.47.23:294][381]MapCheck: Warning: Fireball7 スタティックメッシュアクタに NULL のStaticMesh プロパティがあります 
[2023.01.09-19.47.23:294][381]MapCheck: Warning: Fireball8 スタティックメッシュアクタに NULL のStaticMesh プロパティがあります 
[2023.01.09-19.47.23:295][381]MapCheck: Warning: FireballMove1 スタティックメッシュアクタに NULL のStaticMesh プロパティがあります 
[2023.01.09-19.47.23:295][381]MapCheck: Warning: FireballMove2 スタティックメッシュアクタに NULL のStaticMesh プロパティがあります 
[2023.01.09-19.47.23:295][381]MapCheck: Warning: Fireball9 スタティックメッシュアクタに NULL のStaticMesh プロパティがあります 
[2023.01.09-19.47.23:295][381]MapCheck: Warning: Fireball11 スタティックメッシュアクタに NULL のStaticMesh プロパティがあります 
[2023.01.09-19.47.23:295][381]MapCheck: Warning: Fireball10_6 スタティックメッシュアクタに NULL のStaticMesh プロパティがあります 
[2023.01.09-19.47.23:295][381]MapCheck: Warning: Fireball12 スタティックメッシュアクタに NULL のStaticMesh プロパティがあります 
[2023.01.09-19.47.23:295][381]MapCheck: Warning: Fireball13_8 スタティックメッシュアクタに NULL のStaticMesh プロパティがあります 
[2023.01.09-19.47.23:295][381]MapCheck: Warning: Fireball14 スタティックメッシュアクタに NULL のStaticMesh プロパティがあります 
[2023.01.09-19.47.23:295][381]MapCheck: Warning: GameOverFire_5 スタティックメッシュアクタに NULL のStaticMesh プロパティがあります 
[2023.01.09-19.47.23:296][381]MapCheck: Warning: RotationFire1 スタティックメッシュアクタに NULL のStaticMesh プロパティがあります 
[2023.01.09-19.47.23:296][381]MapCheck: Warning: RotationFire10 スタティックメッシュアクタに NULL のStaticMesh プロパティがあります 
[2023.01.09-19.47.23:296][381]MapCheck: Warning: RotationFire11 スタティックメッシュアクタに NULL のStaticMesh プロパティがあります 
[2023.01.09-19.47.23:296][381]MapCheck: Warning: RotationFire12 スタティックメッシュアクタに NULL のStaticMesh プロパティがあります 
[2023.01.09-19.47.23:296][381]MapCheck: Warning: RotationFire2 スタティックメッシュアクタに NULL のStaticMesh プロパティがあります 
[2023.01.09-19.47.23:296][381]MapCheck: Warning: RotationFire3 スタティックメッシュアクタに NULL のStaticMesh プロパティがあります 
[2023.01.09-19.47.23:296][381]MapCheck: Warning: RotationFire4 スタティックメッシュアクタに NULL のStaticMesh プロパティがあります 
[2023.01.09-19.47.23:296][381]MapCheck: Warning: RotationFire5_2 スタティックメッシュアクタに NULL のStaticMesh プロパティがあります 
[2023.01.09-19.47.23:297][381]MapCheck: Warning: RotationFire6 スタティックメッシュアクタに NULL のStaticMesh プロパティがあります 
[2023.01.09-19.47.23:297][381]MapCheck: Warning: RotationFire7 スタティックメッシュアクタに NULL のStaticMesh プロパティがあります 
[2023.01.09-19.47.23:297][381]MapCheck: Warning: RotationFire8 スタティックメッシュアクタに NULL のStaticMesh プロパティがあります 
[2023.01.09-19.47.23:297][381]MapCheck: Warning: RotationFire9 スタティックメッシュアクタに NULL のStaticMesh プロパティがあります 
[2023.01.09-19.47.23:370][381]MapCheck: マップチェックが完了: 1 エラー、 29 警告、完了に 76.353ミリ秒かかりました。
[2023.01.09-19.47.23:394][381]LogEditorBuildUtils: Build time 0:14
[2023.01.09-19.47.26:019][390]Job is a success!
[2023.01.09-19.47.26:435][391]LogVolumetricLightmapImport: Imported Volumetric Lightmap in 0.013s
[2023.01.09-19.47.26:435][391]LogVolumetricLightmapImport:      Indirection Texture 16x16x16 = 0.0Mb
[2023.01.09-19.47.26:435][391]LogVolumetricLightmapImport:      BrickData 165x5x5 = 0.2Mb
[2023.01.09-19.47.26:435][391]LogVolumetricLightmapImport:      Bricks at Level
[2023.01.09-19.47.26:435][391]LogVolumetricLightmapImport:          0: 3.0% covering 100.0% of volume
[2023.01.09-19.47.26:435][391]LogVolumetricLightmapImport:          1: 6.1% covering 3.1% of volume
[2023.01.09-19.47.26:435][391]LogVolumetricLightmapImport:          2: 90.9% covering 0.7% of volume
[2023.01.09-19.47.26:669][391]LogTexture: Display: Building textures: SkyOcclusion0_1 (AutoDXT, 512X256)
[2023.01.09-19.47.26:669][391]LogTexture: Display: Building textures: HQ_Lightmap0_1 (AutoDXT, 512X512)
[2023.01.09-19.47.26:669][391]LogTexture: Display: Building textures: LQ_Lightmap_0_1 (DXT1, 512X512)
[2023.01.09-19.47.26:670][391]LogTexture: Display: Building textures: SkyOcclusion0_2 (AutoDXT, 64X32)
[2023.01.09-19.47.26:670][391]LogTexture: Display: Building textures: HQ_Lightmap0_2 (AutoDXT, 64X64)
[2023.01.09-19.47.26:670][391]LogTexture: Display: Building textures: LQ_Lightmap_0_2 (DXT1, 64X64)
[2023.01.09-19.47.26:670][391]LogTexture: Display: Building textures: ShadowMapTexture2D_4 (G8, 32X32)
[2023.01.09-19.47.26:670][391]LogTexture: Display: Building textures: ShadowMapTexture2D_3 (G8, 1024X64)
[2023.01.09-19.47.26:748][391]Lightmass on DESKTOP-J0P5LQ2: 2.23 sec total, 258 ms importing, 20 ms setup, 545 ms photons, 1.39 sec processing, 0 ms extra exporting [16/16 mappings]. Threads: 9.49 sec total, 1.05 sec processing.
[2023.01.09-19.47.26:755][391]LogStaticLightingSystem: Illumination: 15.7 sec (146 ms encoding lightmaps, 54 ms encoding shadowmaps)
[2023.01.09-19.47.26:755][391]LogStaticLightingSystem: Lightmap texture memory:  0.7 MB (0.7 MB streaming, 0.0 MB non-streaming), 4 textures
[2023.01.09-19.47.26:755][391]LogStaticLightingSystem: Shadowmap texture memory: 0.1 MB (0.1 MB streaming, 0.0 MB non-streaming), 2 textures
[2023.01.09-19.47.27:054][391]DumpUnbuiltLightIteractions
[2023.01.09-19.47.27:054][391]Lights with unbuilt interactions: 0
[2023.01.09-19.47.27:054][391]
[2023.01.09-19.47.27:054][391]Primitives with unbuilt interactions: 0
[2023.01.09-19.47.27:167][392]Cmd: MAP CHECK NOTIFYRESULTS
[2023.01.09-19.47.27:167][392]MapCheck: New page: ThirdPersonExampleMap - 2023/01/10 13:47:27
[2023.01.09-19.47.27:168][392]MapCheck: Warning: Fireball1_6 スタティックメッシュアクタに NULL のStaticMesh プロパティがあります 
[2023.01.09-19.47.27:168][392]MapCheck: Warning: Fireball2_8 スタティックメッシュアクタに NULL のStaticMesh プロパティがあります 
[2023.01.09-19.47.27:168][392]MapCheck: Warning: Fireball3_10 スタティックメッシュアクタに NULL のStaticMesh プロパティがあります 
[2023.01.09-19.47.27:168][392]MapCheck: Warning: Fireball4_12 スタティックメッシュアクタに NULL のStaticMesh プロパティがあります 
[2023.01.09-19.47.27:168][392]MapCheck: Warning: Fireball5_14 スタティックメッシュアクタに NULL のStaticMesh プロパティがあります 
[2023.01.09-19.47.27:168][392]MapCheck: Warning: Fireball6 スタティックメッシュアクタに NULL のStaticMesh プロパティがあります 
[2023.01.09-19.47.27:168][392]MapCheck: Warning: Fireball7 スタティックメッシュアクタに NULL のStaticMesh プロパティがあります 
[2023.01.09-19.47.27:168][392]MapCheck: Warning: Fireball8 スタティックメッシュアクタに NULL のStaticMesh プロパティがあります 
[2023.01.09-19.47.27:169][392]MapCheck: Warning: FireballMove1 スタティックメッシュアクタに NULL のStaticMesh プロパティがあります 
[2023.01.09-19.47.27:169][392]MapCheck: Warning: FireballMove2 スタティックメッシュアクタに NULL のStaticMesh プロパティがあります 
[2023.01.09-19.47.27:169][392]MapCheck: Warning: Fireball9 スタティックメッシュアクタに NULL のStaticMesh プロパティがあります 
[2023.01.09-19.47.27:169][392]MapCheck: Warning: Fireball11 スタティックメッシュアクタに NULL のStaticMesh プロパティがあります 
[2023.01.09-19.47.27:169][392]MapCheck: Warning: Fireball10_6 スタティックメッシュアクタに NULL のStaticMesh プロパティがあります 
[2023.01.09-19.47.27:169][392]MapCheck: Warning: Fireball12 スタティックメッシュアクタに NULL のStaticMesh プロパティがあります 
[2023.01.09-19.47.27:169][392]MapCheck: Warning: Fireball13_8 スタティックメッシュアクタに NULL のStaticMesh プロパティがあります 
[2023.01.09-19.47.27:169][392]MapCheck: Warning: Fireball14 スタティックメッシュアクタに NULL のStaticMesh プロパティがあります 
[2023.01.09-19.47.27:169][392]MapCheck: Warning: GameOverFire_5 スタティックメッシュアクタに NULL のStaticMesh プロパティがあります 
[2023.01.09-19.47.27:170][392]MapCheck: Warning: RotationFire1 スタティックメッシュアクタに NULL のStaticMesh プロパティがあります 
[2023.01.09-19.47.27:170][392]MapCheck: Warning: RotationFire10 スタティックメッシュアクタに NULL のStaticMesh プロパティがあります 
[2023.01.09-19.47.27:170][392]MapCheck: Warning: RotationFire11 スタティックメッシュアクタに NULL のStaticMesh プロパティがあります 
[2023.01.09-19.47.27:170][392]MapCheck: Warning: RotationFire12 スタティックメッシュアクタに NULL のStaticMesh プロパティがあります 
[2023.01.09-19.47.27:170][392]MapCheck: Warning: RotationFire2 スタティックメッシュアクタに NULL のStaticMesh プロパティがあります 
[2023.01.09-19.47.27:170][392]MapCheck: Warning: RotationFire3 スタティックメッシュアクタに NULL のStaticMesh プロパティがあります 
[2023.01.09-19.47.27:170][392]MapCheck: Warning: RotationFire4 スタティックメッシュアクタに NULL のStaticMesh プロパティがあります 
[2023.01.09-19.47.27:170][392]MapCheck: Warning: RotationFire5_2 スタティックメッシュアクタに NULL のStaticMesh プロパティがあります 
[2023.01.09-19.47.27:170][392]MapCheck: Warning: RotationFire6 スタティックメッシュアクタに NULL のStaticMesh プロパティがあります 
[2023.01.09-19.47.27:170][392]MapCheck: Warning: RotationFire7 スタティックメッシュアクタに NULL のStaticMesh プロパティがあります 
[2023.01.09-19.47.27:170][392]MapCheck: Warning: RotationFire8 スタティックメッシュアクタに NULL のStaticMesh プロパティがあります 
[2023.01.09-19.47.27:170][392]MapCheck: Warning: RotationFire9 スタティックメッシュアクタに NULL のStaticMesh プロパティがあります 
[2023.01.09-19.47.27:238][392]MapCheck: マップチェックが完了: 0 エラー、 29 警告、完了に 71.402ミリ秒かかりました。
[2023.01.09-19.47.33:999][415]LogSlate: Window 'メッセージ ログ' being destroyed
[2023.01.09-19.47.34:012][415]LogSlate: Window 'メッセージ ログ' being destroyed
[2023.01.09-19.47.38:576][626]LogSlate: FSceneViewport::OnFocusLost() reason 2
[2023.01.09-19.47.39:171][661]LogTemp: Repeating last play command: 選択ビューポート
[2023.01.09-19.47.39:197][661]LogBlueprintUserMessages: Early PlayInEditor Detection: Level '/Game/ThirdPersonCPP/Maps/ThirdPersonExampleMap.ThirdPersonExampleMap:PersistentLevel' has LevelScriptBlueprint '/Game/ThirdPersonCPP/Maps/ThirdPersonExampleMap.ThirdPersonExampleMap:PersistentLevel.ThirdPersonExampleMap' with GeneratedClass '/Game/ThirdPersonCPP/Maps/ThirdPersonExampleMap.ThirdPersonExampleMap_C' with ClassGeneratedBy '/Game/ThirdPersonCPP/Maps/ThirdPersonExampleMap.ThirdPersonExampleMap:PersistentLevel.ThirdPersonExampleMap'
[2023.01.09-19.47.39:197][661]LogPlayLevel: PlayLevel: No blueprints needed recompiling
[2023.01.09-19.47.39:197][661]PIE: New page: PIEセッション: ThirdPersonExampleMap (2023/01/10 13:47:39)
[2023.01.09-19.47.39:197][661]LogPlayLevel: Creating play world package: /Game/ThirdPersonCPP/Maps/UEDPIE_0_ThirdPersonExampleMap
[2023.01.09-19.47.39:229][661]LogPlayLevel: PIE: StaticDuplicateObject took: (0.030798s)
[2023.01.09-19.47.39:229][661]LogAIModule: Creating AISystem for world ThirdPersonExampleMap
[2023.01.09-19.47.39:230][661]LogPlayLevel: PIE: World Init took: (0.001088s)
[2023.01.09-19.47.39:230][661]LogPlayLevel: PIE: Created PIE world by copying editor world from /Game/ThirdPersonCPP/Maps/ThirdPersonExampleMap.ThirdPersonExampleMap to /Game/ThirdPersonCPP/Maps/UEDPIE_0_ThirdPersonExampleMap.ThirdPersonExampleMap (0.032176s)
[2023.01.09-19.47.39:277][661]LogInit: XAudio2 using 'スピーカー (DisplayLink Audio)' : 2 channels at 48 kHz using 16 bits per sample (channel mask 0x3)
[2023.01.09-19.47.39:286][661]LogInit: FAudioDevice initialized.
[2023.01.09-19.47.39:286][661]LogSlate: FSceneViewport::OnFocusLost() reason 2
[2023.01.09-19.47.39:320][661]LogLoad: Game class is 'FEGM_BP_C'
[2023.01.09-19.47.39:341][661]LogWorld: Bringing World /Game/ThirdPersonCPP/Maps/UEDPIE_0_ThirdPersonExampleMap.ThirdPersonExampleMap up for play (max tick rate 60) at 2023.01.10-04.47.39
[2023.01.09-19.47.39:342][661]LogWorld: Bringing up level for play took: 0.021499
[2023.01.09-19.47.39:359][661]PIE: /Game/ThirdPersonCPP/Maps/UEDPIE_0_ThirdPersonExampleMap -0.785のプレイ イン エディタの開始時間
[2023.01.09-19.47.39:360][661]LogBlueprintUserMessages: Late PlayInEditor Detection: Level '/Game/ThirdPersonCPP/Maps/ThirdPersonExampleMap.ThirdPersonExampleMap:PersistentLevel' has LevelScriptBlueprint '/Game/ThirdPersonCPP/Maps/ThirdPersonExampleMap.ThirdPersonExampleMap:PersistentLevel.ThirdPersonExampleMap' with GeneratedClass '/Game/ThirdPersonCPP/Maps/ThirdPersonExampleMap.ThirdPersonExampleMap_C' with ClassGeneratedBy '/Game/ThirdPersonCPP/Maps/ThirdPersonExampleMap.ThirdPersonExampleMap:PersistentLevel.ThirdPersonExampleMap'
[2023.01.09-19.48.36:235][337]LogTemp: You have Healed ItemHealHP2
[2023.01.09-19.48.36:235][337]LogTemp: Warning: C++ called
[2023.01.09-19.49.43:432][169]LogSlate: FSceneViewport::OnFocusLost() reason 2
[2023.01.09-19.49.45:226][264]LogScript: Warning: Accessed None trying to read property K2Node_DynamicCast_AsFire_Escape_Character
	HP_HUD_C /Engine/Transient.UnrealEdEngine_0:GameInstance_1.HP_HUD_C_0
	Function /Game/Blueprints/HP_HUD.HP_HUD_C:Get_HP_Bar_FillColorAndOpacity_0:008F
[2023.01.09-19.49.45:226][264]LogScript: Warning: Accessed None trying to read property K2Node_DynamicCast_AsFire_Escape_Character
	HP_HUD_C /Engine/Transient.UnrealEdEngine_0:GameInstance_1.HP_HUD_C_0
	Function /Game/Blueprints/HP_HUD.HP_HUD_C:Get_HP_Bar_FillColorAndOpacity_0:01A0
[2023.01.09-19.49.45:226][264]LogScript: Warning: Accessed None trying to read property K2Node_DynamicCast_AsFire_Escape_Character
	HP_HUD_C /Engine/Transient.UnrealEdEngine_0:GameInstance_1.HP_HUD_C_0
	Function /Game/Blueprints/HP_HUD.HP_HUD_C:Get_HP_Bar_Percent_0:008F
[2023.01.09-19.49.45:242][265]LogScript: Warning: Accessed None trying to read property K2Node_DynamicCast_AsFire_Escape_Character
	HP_HUD_C /Engine/Transient.UnrealEdEngine_0:GameInstance_1.HP_HUD_C_0
	Function /Game/Blueprints/HP_HUD.HP_HUD_C:Get_HP_Bar_FillColorAndOpacity_0:008F
[2023.01.09-19.49.45:242][265]LogScript: Warning: Accessed None trying to read property K2Node_DynamicCast_AsFire_Escape_Character
	HP_HUD_C /Engine/Transient.UnrealEdEngine_0:GameInstance_1.HP_HUD_C_0
	Function /Game/Blueprints/HP_HUD.HP_HUD_C:Get_HP_Bar_FillColorAndOpacity_0:01A0
[2023.01.09-19.49.45:242][265]LogScript: Warning: Accessed None trying to read property K2Node_DynamicCast_AsFire_Escape_Character
	HP_HUD_C /Engine/Transient.UnrealEdEngine_0:GameInstance_1.HP_HUD_C_0
	Function /Game/Blueprints/HP_HUD.HP_HUD_C:Get_HP_Bar_Percent_0:008F
[2023.01.09-19.49.45:259][266]LogScript: Warning: Accessed None trying to read property K2Node_DynamicCast_AsFire_Escape_Character
	HP_HUD_C /Engine/Transient.UnrealEdEngine_0:GameInstance_1.HP_HUD_C_0
	Function /Game/Blueprints/HP_HUD.HP_HUD_C:Get_HP_Bar_FillColorAndOpacity_0:008F
[2023.01.09-19.49.45:259][266]LogScript: Warning: Accessed None trying to read property K2Node_DynamicCast_AsFire_Escape_Character
	HP_HUD_C /Engine/Transient.UnrealEdEngine_0:GameInstance_1.HP_HUD_C_0
	Function /Game/Blueprints/HP_HUD.HP_HUD_C:Get_HP_Bar_FillColorAndOpacity_0:01A0
[2023.01.09-19.49.45:259][266]LogScript: Warning: Accessed None trying to read property K2Node_DynamicCast_AsFire_Escape_Character
	HP_HUD_C /Engine/Transient.UnrealEdEngine_0:GameInstance_1.HP_HUD_C_0
	Function /Game/Blueprints/HP_HUD.HP_HUD_C:Get_HP_Bar_Percent_0:008F
[2023.01.09-19.49.45:275][267]LogScript: Warning: Accessed None trying to read property K2Node_DynamicCast_AsFire_Escape_Character
	HP_HUD_C /Engine/Transient.UnrealEdEngine_0:GameInstance_1.HP_HUD_C_0
	Function /Game/Blueprints/HP_HUD.HP_HUD_C:Get_HP_Bar_FillColorAndOpacity_0:008F
[2023.01.09-19.49.45:275][267]LogScript: Warning: Accessed None trying to read property K2Node_DynamicCast_AsFire_Escape_Character
	HP_HUD_C /Engine/Transient.UnrealEdEngine_0:GameInstance_1.HP_HUD_C_0
	Function /Game/Blueprints/HP_HUD.HP_HUD_C:Get_HP_Bar_FillColorAndOpacity_0:01A0
[2023.01.09-19.49.45:275][267]LogScript: Warning: Accessed None trying to read property K2Node_DynamicCast_AsFire_Escape_Character
	HP_HUD_C /Engine/Transient.UnrealEdEngine_0:GameInstance_1.HP_HUD_C_0
	Function /Game/Blueprints/HP_HUD.HP_HUD_C:Get_HP_Bar_Percent_0:008F
[2023.01.09-19.49.45:290][268]LogScript: Warning: Accessed None trying to read property K2Node_DynamicCast_AsFire_Escape_Character
	HP_HUD_C /Engine/Transient.UnrealEdEngine_0:GameInstance_1.HP_HUD_C_0
	Function /Game/Blueprints/HP_HUD.HP_HUD_C:Get_HP_Bar_FillColorAndOpacity_0:008F
[2023.01.09-19.49.45:290][268]LogScript: Warning: Accessed None trying to read property K2Node_DynamicCast_AsFire_Escape_Character
	HP_HUD_C /Engine/Transient.UnrealEdEngine_0:GameInstance_1.HP_HUD_C_0
	Function /Game/Blueprints/HP_HUD.HP_HUD_C:Get_HP_Bar_FillColorAndOpacity_0:01A0
[2023.01.09-19.49.45:290][268]LogScript: Warning: Accessed None trying to read property K2Node_DynamicCast_AsFire_Escape_Character
	HP_HUD_C /Engine/Transient.UnrealEdEngine_0:GameInstance_1.HP_HUD_C_0
	Function /Game/Blueprints/HP_HUD.HP_HUD_C:Get_HP_Bar_Percent_0:008F
[2023.01.09-19.49.45:306][269]LogScript: Warning: Accessed None trying to read property K2Node_DynamicCast_AsFire_Escape_Character
	HP_HUD_C /Engine/Transient.UnrealEdEngine_0:GameInstance_1.HP_HUD_C_0
	Function /Game/Blueprints/HP_HUD.HP_HUD_C:Get_HP_Bar_FillColorAndOpacity_0:008F
[2023.01.09-19.49.45:306][269]LogScript: Warning: Accessed None trying to read property K2Node_DynamicCast_AsFire_Escape_Character
	HP_HUD_C /Engine/Transient.UnrealEdEngine_0:GameInstance_1.HP_HUD_C_0
	Function /Game/Blueprints/HP_HUD.HP_HUD_C:Get_HP_Bar_FillColorAndOpacity_0:01A0
[2023.01.09-19.49.46:587][345]LogBlueprintUserMessages: Early EndPlayMap Detection: Level '/Game/ThirdPersonCPP/Maps/ThirdPersonExampleMap.ThirdPersonExampleMap:PersistentLevel' has LevelScriptBlueprint '/Game/ThirdPersonCPP/Maps/ThirdPersonExampleMap.ThirdPersonExampleMap:PersistentLevel.ThirdPersonExampleMap' with GeneratedClass '/Game/ThirdPersonCPP/Maps/ThirdPersonExampleMap.ThirdPersonExampleMap_C' with ClassGeneratedBy '/Game/ThirdPersonCPP/Maps/ThirdPersonExampleMap.ThirdPersonExampleMap:PersistentLevel.ThirdPersonExampleMap'
[2023.01.09-19.49.46:588][345]LogSlate: Updating window title bar state: overlay mode, drag disabled, window buttons hidden, title bar hidden
[2023.01.09-19.49.46:631][345]LogPlayLevel: Display: Shutting down PIE online subsystems
[2023.01.09-19.49.46:631][345]LogBlueprintUserMessages: Late EndPlayMap Detection: Level '/Game/ThirdPersonCPP/Maps/ThirdPersonExampleMap.ThirdPersonExampleMap:PersistentLevel' has LevelScriptBlueprint '/Game/ThirdPersonCPP/Maps/ThirdPersonExampleMap.ThirdPersonExampleMap:PersistentLevel.ThirdPersonExampleMap' with GeneratedClass '/Game/ThirdPersonCPP/Maps/ThirdPersonExampleMap.ThirdPersonExampleMap_C' with ClassGeneratedBy '/Game/ThirdPersonCPP/Maps/ThirdPersonExampleMap.ThirdPersonExampleMap:PersistentLevel.ThirdPersonExampleMap'
[2023.01.09-19.49.46:662][345]LogSlate: Updating window title bar state: overlay mode, drag disabled, window buttons hidden, title bar hidden
[2023.01.09-19.49.46:678][346]LogPlayLevel: Display: Destroying online subsystem :Context_4
[2023.01.09-19.54.35:254][932]LogSlate: FSceneViewport::OnFocusLost() reason 0
[2023.01.09-19.55.05:556][773]LogAssetEditorManager: Opening Asset editor for Blueprint /Game/Blueprints/RotationFire.RotationFire
[2023.01.09-19.55.06:030][773]LogContentBrowser: Native class hierarchy updated for 'BlueprintGraph' in 0.0008 seconds. Added 116 classes and 0 folders.
[2023.01.09-19.55.07:555][773]LogSlate: Took 0.001066 seconds to synchronously load lazily loaded font '../../../Engine/Content/Editor/Slate/Fonts/GenEiGothicPro-SemiBold.otf' (703K)
[2023.01.09-19.55.07:555][773]LogSlate: Took 0.000144 seconds to synchronously load lazily loaded font '../../../Engine/Content/Slate/Fonts/Roboto-BoldCondensed.ttf' (158K)
[2023.01.09-19.58.59:742][440]LogSavePackage: Moving '../../../../../../Users/tsuyoshi/Documents/TechStaDoc/ts_ue4_stu_202211/90_FinalProject/FireEscape/Saved/ThirdPersonExampleMap_Auto16ED147EB43070C8926E08B990ABD69E8.tmp' to '../../../../../../Users/tsuyoshi/Documents/TechStaDoc/ts_ue4_stu_202211/90_FinalProject/FireEscape/Saved/Autosaves/Game/ThirdPersonCPP/Maps/ThirdPersonExampleMap_Auto1.umap'
[2023.01.09-19.58.59:779][440]LogFileHelpers: Editor autosave (incl. sublevels) for '/Game/ThirdPersonCPP/Maps/ThirdPersonExampleMap' took 1.191
[2023.01.09-19.58.59:779][440]LogFileHelpers: Editor autosave (incl. sublevels) for all levels took 1.191
[2023.01.09-19.58.59:788][440]OBJ SavePackage: Generating thumbnails for [0] asset(s) in package [/Game/ThirdPersonCPP/Maps/ThirdPersonExampleMap_BuiltData] ([1] browsable assets)...
[2023.01.09-19.58.59:788][440]OBJ SavePackage: Finished generating thumbnails for package [/Game/ThirdPersonCPP/Maps/ThirdPersonExampleMap_BuiltData]
[2023.01.09-19.58.59:909][440]LogSavePackage: Moving '../../../../../../Users/tsuyoshi/Documents/TechStaDoc/ts_ue4_stu_202211/90_FinalProject/FireEscape/Saved/ThirdPersonExampleMap_BuiltData_4D1C889A4ACA7BEB2DEFC395F96909C2.tmp' to '../../../../../../Users/tsuyoshi/Documents/TechStaDoc/ts_ue4_stu_202211/90_FinalProject/FireEscape/Saved/Autosaves/Game/ThirdPersonCPP/Maps/ThirdPersonExampleMap_BuiltData_Auto1.uasset'
[2023.01.09-19.58.59:943][440]LogFileHelpers: Auto-saving content packages took 0.157
[2023.01.10-12.51.32:071][441]LogAIModule: Creating AISystem for world TitleLevel
[2023.01.10-12.51.32:086][441]LogAssetEditorManager: Opening Asset editor for World /Game/ThirdPersonCPP/Maps/TitleLevel.TitleLevel
[2023.01.10-12.51.34:069][441]LogSlate: Window 'コンテンツを保存' being destroyed
[2023.01.10-12.51.36:116][441]LogSavePackage: Moving '../../../../../../Users/tsuyoshi/Documents/TechStaDoc/ts_ue4_stu_202211/90_FinalProject/FireEscape/Saved/ThirdPersonExampleMap9F634FF646BD887C7F18FFB72F97CC37.tmp' to '../../../../../../Users/tsuyoshi/Documents/TechStaDoc/ts_ue4_stu_202211/90_FinalProject/FireEscape/Content/ThirdPersonCPP/Maps/ThirdPersonExampleMap.umap'
[2023.01.10-12.51.36:153][441]LogFileHelpers: Saving map 'ThirdPersonExampleMap' took 2.074
[2023.01.10-12.51.36:199][441]LogSavePackage: Moving '../../../../../../Users/tsuyoshi/Documents/TechStaDoc/ts_ue4_stu_202211/90_FinalProject/FireEscape/Saved/ThirdPersonExampleMap_BuiltData40B16378460F6161F2F27684A06E6FC3.tmp' to '../../../../../../Users/tsuyoshi/Documents/TechStaDoc/ts_ue4_stu_202211/90_FinalProject/FireEscape/Content/ThirdPersonCPP/Maps/ThirdPersonExampleMap_BuiltData.uasset'
[2023.01.10-12.51.36:206][441]Cmd: MAP LOAD FILE="../../../../../../Users/tsuyoshi/Documents/TechStaDoc/ts_ue4_stu_202211/90_FinalProject/FireEscape/Content/ThirdPersonCPP/Maps/TitleLevel.umap" TEMPLATE=0 SHOWPROGRESS=1 FEATURELEVEL=3
[2023.01.10-12.51.36:206][441]LightingResults: New page: ライティングのビルド
[2023.01.10-12.51.36:207][441]LoadErrors: New page: マップをロード中: TitleLevel.umap
[2023.01.10-12.51.36:213][441]MapCheck: New page: マップをチェック
[2023.01.10-12.51.36:213][441]LightingResults: New page: <何も選択されていません>
[2023.01.10-12.51.36:253][441]LogEditorServer: Finished looking for orphan Actors (0.000 secs)
[2023.01.10-12.51.36:301][441]Cmd: MAP CHECKDEP NOCLEARLOG
[2023.01.10-12.51.36:362][441]MapCheck: マップチェックが完了: 0 エラー、 0 警告、完了に 60.669ミリ秒かかりました。
[2023.01.10-12.51.36:362][441]LogFileHelpers: Loading map 'TitleLevel' took 0.161
[2023.01.10-12.51.48:386][ 79]LogAssetEditorManager: Opening Asset editor for Blueprint /Game/ThirdPersonCPP/Blueprints/ThirdPersonCharacter.ThirdPersonCharacter
[2023.01.10-12.52.23:315][135]LogTemp: Repeating last play command: 選択ビューポート
[2023.01.10-12.52.23:334][135]LogBlueprintUserMessages: Early PlayInEditor Detection: Level '/Game/ThirdPersonCPP/Maps/TitleLevel.TitleLevel:PersistentLevel' has LevelScriptBlueprint '/Game/ThirdPersonCPP/Maps/TitleLevel.TitleLevel:PersistentLevel.TitleLevel' with GeneratedClass '/Game/ThirdPersonCPP/Maps/TitleLevel.TitleLevel_C' with ClassGeneratedBy '/Game/ThirdPersonCPP/Maps/TitleLevel.TitleLevel:PersistentLevel.TitleLevel'
[2023.01.10-12.52.23:334][135]BlueprintLog: New page: プレイ前に自動再コンパイル
[2023.01.10-12.52.23:354][135]LogPlayLevel: [PlayLevel] Compiling ThirdPersonCharacter before play...
[2023.01.10-12.52.23:539][135]LogPlayLevel: PlayLevel: Blueprint regeneration took 204 ms (1 blueprints)
[2023.01.10-12.52.23:539][135]PIE: New page: PIEセッション: TitleLevel (2023/01/11 6:52:23)
[2023.01.10-12.52.23:539][135]LogPlayLevel: Creating play world package: /Game/ThirdPersonCPP/Maps/UEDPIE_0_TitleLevel
[2023.01.10-12.52.23:542][135]LogPlayLevel: PIE: StaticDuplicateObject took: (0.002277s)
[2023.01.10-12.52.23:542][135]LogAIModule: Creating AISystem for world TitleLevel
[2023.01.10-12.52.23:542][135]LogPlayLevel: PIE: World Init took: (0.000917s)
[2023.01.10-12.52.23:542][135]LogPlayLevel: PIE: Created PIE world by copying editor world from /Game/ThirdPersonCPP/Maps/TitleLevel.TitleLevel to /Game/ThirdPersonCPP/Maps/UEDPIE_0_TitleLevel.TitleLevel (0.003383s)
[2023.01.10-12.52.23:575][135]LogInit: XAudio2 using 'スピーカー (DisplayLink Audio)' : 2 channels at 48 kHz using 16 bits per sample (channel mask 0x3)
[2023.01.10-12.52.23:583][135]LogInit: FAudioDevice initialized.
[2023.01.10-12.52.23:594][135]LogSlate: Updating window title bar state: overlay mode, drag disabled, window buttons hidden, title bar hidden
[2023.01.10-12.52.23:679][135]LogLoad: Game class is 'FEGM_BP_C'
[2023.01.10-12.52.23:683][135]LogWorld: Bringing World /Game/ThirdPersonCPP/Maps/UEDPIE_0_TitleLevel.TitleLevel up for play (max tick rate 60) at 2023.01.10-21.52.23
[2023.01.10-12.52.23:683][135]LogWorld: Bringing up level for play took: 0.002238
[2023.01.10-12.52.23:697][135]LogGameMode: FindPlayerStart: PATHS NOT DEFINED or NO PLAYERSTART with positive rating
[2023.01.10-12.52.23:703][135]PIE: /Game/ThirdPersonCPP/Maps/UEDPIE_0_TitleLevel 0.192のプレイ イン エディタの開始時間
[2023.01.10-12.52.23:704][135]LogBlueprintUserMessages: Late PlayInEditor Detection: Level '/Game/ThirdPersonCPP/Maps/TitleLevel.TitleLevel:PersistentLevel' has LevelScriptBlueprint '/Game/ThirdPersonCPP/Maps/TitleLevel.TitleLevel:PersistentLevel.TitleLevel' with GeneratedClass '/Game/ThirdPersonCPP/Maps/TitleLevel.TitleLevel_C' with ClassGeneratedBy '/Game/ThirdPersonCPP/Maps/TitleLevel.TitleLevel:PersistentLevel.TitleLevel'
[2023.01.10-12.52.30:022][496]LogBlueprintUserMessages: Early EndPlayMap Detection: Level '/Game/ThirdPersonCPP/Maps/TitleLevel.TitleLevel:PersistentLevel' has LevelScriptBlueprint '/Game/ThirdPersonCPP/Maps/TitleLevel.TitleLevel:PersistentLevel.TitleLevel' with GeneratedClass '/Game/ThirdPersonCPP/Maps/TitleLevel.TitleLevel_C' with ClassGeneratedBy '/Game/ThirdPersonCPP/Maps/TitleLevel.TitleLevel:PersistentLevel.TitleLevel'
[2023.01.10-12.52.30:022][496]LogSlate: Updating window title bar state: overlay mode, drag disabled, window buttons hidden, title bar hidden
[2023.01.10-12.52.30:045][496]LogSlate: Window 'FireEscape ゲームプレビュー Standalone (64-ビット/PCD3D_SM5)' being destroyed
[2023.01.10-12.52.30:077][496]LogPlayLevel: Display: Shutting down PIE online subsystems
[2023.01.10-12.52.30:077][496]LogBlueprintUserMessages: Late EndPlayMap Detection: Level '/Game/ThirdPersonCPP/Maps/TitleLevel.TitleLevel:PersistentLevel' has LevelScriptBlueprint '/Game/ThirdPersonCPP/Maps/TitleLevel.TitleLevel:PersistentLevel.TitleLevel' with GeneratedClass '/Game/ThirdPersonCPP/Maps/TitleLevel.TitleLevel_C' with ClassGeneratedBy '/Game/ThirdPersonCPP/Maps/TitleLevel.TitleLevel:PersistentLevel.TitleLevel'
[2023.01.10-12.52.30:144][497]LogPlayLevel: Display: Destroying online subsystem :Context_8
[2023.01.10-12.53.40:427][743]LogTemp: Repeating last play command: 選択ビューポート
[2023.01.10-12.53.40:463][743]LogBlueprintUserMessages: Early PlayInEditor Detection: Level '/Game/ThirdPersonCPP/Maps/TitleLevel.TitleLevel:PersistentLevel' has LevelScriptBlueprint '/Game/ThirdPersonCPP/Maps/TitleLevel.TitleLevel:PersistentLevel.TitleLevel' with GeneratedClass '/Game/ThirdPersonCPP/Maps/TitleLevel.TitleLevel_C' with ClassGeneratedBy '/Game/ThirdPersonCPP/Maps/TitleLevel.TitleLevel:PersistentLevel.TitleLevel'
[2023.01.10-12.53.40:463][743]BlueprintLog: New page: プレイ前に自動再コンパイル
[2023.01.10-12.53.40:479][743]LogPlayLevel: [PlayLevel] Compiling ThirdPersonCharacter before play...
[2023.01.10-12.53.40:653][743]LogPlayLevel: PlayLevel: Blueprint regeneration took 189 ms (1 blueprints)
[2023.01.10-12.53.40:653][743]PIE: New page: PIEセッション: TitleLevel (2023/01/11 6:53:40)
[2023.01.10-12.53.40:653][743]LogPlayLevel: Creating play world package: /Game/ThirdPersonCPP/Maps/UEDPIE_0_TitleLevel
[2023.01.10-12.53.40:655][743]LogPlayLevel: PIE: StaticDuplicateObject took: (0.001917s)
[2023.01.10-12.53.40:655][743]LogAIModule: Creating AISystem for world TitleLevel
[2023.01.10-12.53.40:655][743]LogPlayLevel: PIE: World Init took: (0.000669s)
[2023.01.10-12.53.40:655][743]LogPlayLevel: PIE: Created PIE world by copying editor world from /Game/ThirdPersonCPP/Maps/TitleLevel.TitleLevel to /Game/ThirdPersonCPP/Maps/UEDPIE_0_TitleLevel.TitleLevel (0.002723s)
[2023.01.10-12.53.40:699][743]LogInit: XAudio2 using 'スピーカー (DisplayLink Audio)' : 2 channels at 48 kHz using 16 bits per sample (channel mask 0x3)
[2023.01.10-12.53.40:705][743]LogInit: FAudioDevice initialized.
[2023.01.10-12.53.40:720][743]LogSlate: Updating window title bar state: overlay mode, drag disabled, window buttons hidden, title bar hidden
[2023.01.10-12.53.40:793][743]LogLoad: Game class is 'FEGM_BP_C'
[2023.01.10-12.53.40:795][743]LogWorld: Bringing World /Game/ThirdPersonCPP/Maps/UEDPIE_0_TitleLevel.TitleLevel up for play (max tick rate 60) at 2023.01.10-21.53.40
[2023.01.10-12.53.40:796][743]LogWorld: Bringing up level for play took: 0.002541
[2023.01.10-12.53.40:808][743]LogGameMode: FindPlayerStart: PATHS NOT DEFINED or NO PLAYERSTART with positive rating
[2023.01.10-12.53.40:813][743]PIE: /Game/ThirdPersonCPP/Maps/UEDPIE_0_TitleLevel 1.302のプレイ イン エディタの開始時間
[2023.01.10-12.53.40:813][743]LogBlueprintUserMessages: Late PlayInEditor Detection: Level '/Game/ThirdPersonCPP/Maps/TitleLevel.TitleLevel:PersistentLevel' has LevelScriptBlueprint '/Game/ThirdPersonCPP/Maps/TitleLevel.TitleLevel:PersistentLevel.TitleLevel' with GeneratedClass '/Game/ThirdPersonCPP/Maps/TitleLevel.TitleLevel_C' with ClassGeneratedBy '/Game/ThirdPersonCPP/Maps/TitleLevel.TitleLevel:PersistentLevel.TitleLevel'
[2023.01.10-12.53.49:769][264]LogBlueprintUserMessages: Early EndPlayMap Detection: Level '/Game/ThirdPersonCPP/Maps/TitleLevel.TitleLevel:PersistentLevel' has LevelScriptBlueprint '/Game/ThirdPersonCPP/Maps/TitleLevel.TitleLevel:PersistentLevel.TitleLevel' with GeneratedClass '/Game/ThirdPersonCPP/Maps/TitleLevel.TitleLevel_C' with ClassGeneratedBy '/Game/ThirdPersonCPP/Maps/TitleLevel.TitleLevel:PersistentLevel.TitleLevel'
[2023.01.10-12.53.49:770][264]LogSlate: Updating window title bar state: overlay mode, drag disabled, window buttons hidden, title bar hidden
[2023.01.10-12.53.49:787][264]LogSlate: Window 'FireEscape ゲームプレビュー Standalone (64-ビット/PCD3D_SM5)' being destroyed
[2023.01.10-12.53.49:825][264]LogPlayLevel: Display: Shutting down PIE online subsystems
[2023.01.10-12.53.49:825][264]LogBlueprintUserMessages: Late EndPlayMap Detection: Level '/Game/ThirdPersonCPP/Maps/TitleLevel.TitleLevel:PersistentLevel' has LevelScriptBlueprint '/Game/ThirdPersonCPP/Maps/TitleLevel.TitleLevel:PersistentLevel.TitleLevel' with GeneratedClass '/Game/ThirdPersonCPP/Maps/TitleLevel.TitleLevel_C' with ClassGeneratedBy '/Game/ThirdPersonCPP/Maps/TitleLevel.TitleLevel:PersistentLevel.TitleLevel'
[2023.01.10-12.53.49:878][265]LogPlayLevel: Display: Destroying online subsystem :Context_9
[2023.01.10-12.54.49:258][ 87]LogSlate: Took 0.005773 seconds to synchronously load lazily loaded font '../../../Engine/Content/Editor/Slate/Fonts/GenEiGothicPro-Heavy.otf' (704K)
[2023.01.10-12.54.49:263][ 87]LogSlate: Took 0.004686 seconds to synchronously load lazily loaded font '../../../Engine/Content/Slate/Fonts/DroidSansFallback.ttf' (3848K)
[2023.01.10-13.00.00:148][ 57]BlueprintLog: New page: ThirdPersonCharacter をコンパイル
[2023.01.10-13.01.48:529][684]LogSavePackage: Moving '../../../../../../Users/tsuyoshi/Documents/TechStaDoc/ts_ue4_stu_202211/90_FinalProject/FireEscape/Saved/TitleLevel_Auto2E2ACC3CA4FAD637458C09C8628C0FD42.tmp' to '../../../../../../Users/tsuyoshi/Documents/TechStaDoc/ts_ue4_stu_202211/90_FinalProject/FireEscape/Saved/Autosaves/Game/ThirdPersonCPP/Maps/TitleLevel_Auto2.umap'
[2023.01.10-13.01.48:534][684]LogFileHelpers: Editor autosave (incl. sublevels) for '/Game/ThirdPersonCPP/Maps/TitleLevel' took 0.185
[2023.01.10-13.01.48:534][684]LogFileHelpers: Editor autosave (incl. sublevels) for all levels took 0.185
[2023.01.10-13.01.48:539][684]OBJ SavePackage: Generating thumbnails for [1] asset(s) in package [/Game/ThirdPersonCPP/Blueprints/ThirdPersonCharacter] ([1] browsable assets)...
[2023.01.10-13.01.48:571][684]OBJ SavePackage:     Rendered thumbnail for [Blueprint /Game/ThirdPersonCPP/Blueprints/ThirdPersonCharacter.ThirdPersonCharacter]
[2023.01.10-13.01.48:571][684]OBJ SavePackage: Finished generating thumbnails for package [/Game/ThirdPersonCPP/Blueprints/ThirdPersonCharacter]
[2023.01.10-13.01.48:628][684]LogSavePackage: Moving '../../../../../../Users/tsuyoshi/Documents/TechStaDoc/ts_ue4_stu_202211/90_FinalProject/FireEscape/Saved/ThirdPersonCharacter_Auto24D7D8649404E51A52325B3B06521DDF2.tmp' to '../../../../../../Users/tsuyoshi/Documents/TechStaDoc/ts_ue4_stu_202211/90_FinalProject/FireEscape/Saved/Autosaves/Game/ThirdPersonCPP/Blueprints/ThirdPersonCharacter_Auto2.uasset'
[2023.01.10-13.01.48:631][684]LogFileHelpers: Auto-saving content packages took 0.093
[2023.01.10-13.02.26:492][530]BlueprintLog: New page: ThirdPersonCharacter をコンパイル
[2023.01.10-13.02.32:081][778]LogAIModule: Creating AISystem for world ThirdPersonExampleMap
[2023.01.10-13.02.32:179][778]LogAssetEditorManager: Opening Asset editor for World /Game/ThirdPersonCPP/Maps/ThirdPersonExampleMap.ThirdPersonExampleMap
[2023.01.10-13.02.33:683][778]LogSlate: Window 'コンテンツを保存' being destroyed
[2023.01.10-13.02.33:781][778]LogSavePackage: Moving '../../../../../../Users/tsuyoshi/Documents/TechStaDoc/ts_ue4_stu_202211/90_FinalProject/FireEscape/Saved/ThirdPersonCharacterD602A9B34184310FEF3C49ACA80E5ECD.tmp' to '../../../../../../Users/tsuyoshi/Documents/TechStaDoc/ts_ue4_stu_202211/90_FinalProject/FireEscape/Content/ThirdPersonCPP/Blueprints/ThirdPersonCharacter.uasset'
[2023.01.10-13.02.34:078][778]LogSavePackage: Moving '../../../../../../Users/tsuyoshi/Documents/TechStaDoc/ts_ue4_stu_202211/90_FinalProject/FireEscape/Saved/TitleLevel396793B14ADA5EC8D8623187C1FC90CF.tmp' to '../../../../../../Users/tsuyoshi/Documents/TechStaDoc/ts_ue4_stu_202211/90_FinalProject/FireEscape/Content/ThirdPersonCPP/Maps/TitleLevel.umap'
[2023.01.10-13.02.34:103][778]LogFileHelpers: Saving map 'TitleLevel' took 0.318
[2023.01.10-13.02.34:104][778]LightingResults: New page: ライティングのビルド
[2023.01.10-13.02.34:105][778]LoadErrors: New page: マップをロード中: ThirdPersonExampleMap.umap
[2023.01.10-13.02.34:106][778]MapCheck: New page: マップをチェック
[2023.01.10-13.02.34:106][778]LightingResults: New page: <何も選択されていません>
[2023.01.10-13.02.34:188][778]LogEditorServer: Finished looking for orphan Actors (0.000 secs)
[2023.01.10-13.02.34:284][778]Cmd: MAP CHECKDEP NOCLEARLOG
[2023.01.10-13.02.34:346][778]MapCheck: マップチェックが完了: 0 エラー、 0 警告、完了に 62.618ミリ秒かかりました。
[2023.01.10-13.02.34:349][778]LogFileHelpers: Loading map 'ThirdPersonExampleMap' took 0.247
[2023.01.10-13.02.38:083][951]LogAssetEditorManager: Opening Asset editor for LevelScriptBlueprint /Game/ThirdPersonCPP/Maps/ThirdPersonExampleMap.ThirdPersonExampleMap:PersistentLevel.ThirdPersonExampleMap
[2023.01.10-14.06.03:324][390]LogSlate: Window '親クラスを選択' being destroyed
[2023.01.10-14.06.09:546][551]LogAssetEditorManager: Opening Asset editor for Blueprint /Game/Blueprints/test.test
[2023.01.10-14.06.09:868][552]LogRenderer: Reallocating scene render targets to support 836x612 Format 10 NumSamples 1 (Frame:1).
[2023.01.10-14.06.23:418][222]LogSlate: Window 'Delete Assets' being destroyed
[2023.01.10-14.09.25:843][950]LogSlate: Window '親クラスを選択' being destroyed
[2023.01.10-14.09.29:794][ 71]LogAssetEditorManager: Opening Asset editor for Blueprint /Game/Blueprints/test.test
[2023.01.10-14.09.42:285][786]BlueprintLog: New page: test をコンパイル
[2023.01.10-14.09.51:655][ 61]Cmd: TRANSACTION UNDO
[2023.01.10-14.09.51:655][ 61]LogEditorTransaction: Undo 複数のアクタを作成
[2023.01.10-14.09.53:495][126]LogSlate: FSceneViewport::OnFocusLost() reason 0
[2023.01.10-14.10.52:096][570]LogTemp: Repeating last play command: 選択ビューポート
[2023.01.10-14.10.52:122][570]LogBlueprintUserMessages: Early PlayInEditor Detection: Level '/Game/ThirdPersonCPP/Maps/ThirdPersonExampleMap.ThirdPersonExampleMap:PersistentLevel' has LevelScriptBlueprint '/Game/ThirdPersonCPP/Maps/ThirdPersonExampleMap.ThirdPersonExampleMap:PersistentLevel.ThirdPersonExampleMap' with GeneratedClass '/Game/ThirdPersonCPP/Maps/ThirdPersonExampleMap.ThirdPersonExampleMap_C' with ClassGeneratedBy '/Game/ThirdPersonCPP/Maps/ThirdPersonExampleMap.ThirdPersonExampleMap:PersistentLevel.ThirdPersonExampleMap'
[2023.01.10-14.10.52:122][570]LogPlayLevel: PlayLevel: No blueprints needed recompiling
[2023.01.10-14.10.52:123][570]PIE: New page: PIEセッション: ThirdPersonExampleMap (2023/01/11 8:10:52)
[2023.01.10-14.10.52:123][570]LogPlayLevel: Creating play world package: /Game/ThirdPersonCPP/Maps/UEDPIE_0_ThirdPersonExampleMap
[2023.01.10-14.10.52:149][570]LogPlayLevel: PIE: StaticDuplicateObject took: (0.026783s)
[2023.01.10-14.10.52:151][570]LogAIModule: Creating AISystem for world ThirdPersonExampleMap
[2023.01.10-14.10.52:151][570]LogPlayLevel: PIE: World Init took: (0.001628s)
[2023.01.10-14.10.52:151][570]LogPlayLevel: PIE: Created PIE world by copying editor world from /Game/ThirdPersonCPP/Maps/ThirdPersonExampleMap.ThirdPersonExampleMap to /Game/ThirdPersonCPP/Maps/UEDPIE_0_ThirdPersonExampleMap.ThirdPersonExampleMap (0.028852s)
[2023.01.10-14.10.52:211][570]LogInit: XAudio2 using 'スピーカー (DisplayLink Audio)' : 2 channels at 48 kHz using 16 bits per sample (channel mask 0x3)
[2023.01.10-14.10.52:222][570]LogInit: FAudioDevice initialized.
[2023.01.10-14.10.52:252][570]LogLoad: Game class is 'FEGM_BP_C'
[2023.01.10-14.10.52:281][570]LogWorld: Bringing World /Game/ThirdPersonCPP/Maps/UEDPIE_0_ThirdPersonExampleMap.ThirdPersonExampleMap up for play (max tick rate 60) at 2023.01.10-23.10.52
[2023.01.10-14.10.52:284][570]LogWorld: Bringing up level for play took: 0.029089
[2023.01.10-14.10.52:302][570]PIE: /Game/ThirdPersonCPP/Maps/UEDPIE_0_ThirdPersonExampleMap 0.791のプレイ イン エディタの開始時間
[2023.01.10-14.10.52:303][570]LogBlueprintUserMessages: Late PlayInEditor Detection: Level '/Game/ThirdPersonCPP/Maps/ThirdPersonExampleMap.ThirdPersonExampleMap:PersistentLevel' has LevelScriptBlueprint '/Game/ThirdPersonCPP/Maps/ThirdPersonExampleMap.ThirdPersonExampleMap:PersistentLevel.ThirdPersonExampleMap' with GeneratedClass '/Game/ThirdPersonCPP/Maps/ThirdPersonExampleMap.ThirdPersonExampleMap_C' with ClassGeneratedBy '/Game/ThirdPersonCPP/Maps/ThirdPersonExampleMap.ThirdPersonExampleMap:PersistentLevel.ThirdPersonExampleMap'
[2023.01.10-14.11.03:159][131]LogSlate: FSceneViewport::OnFocusLost() reason 2
[2023.01.10-14.11.04:914][226]LogBlueprintUserMessages: Early EndPlayMap Detection: Level '/Game/ThirdPersonCPP/Maps/ThirdPersonExampleMap.ThirdPersonExampleMap:PersistentLevel' has LevelScriptBlueprint '/Game/ThirdPersonCPP/Maps/ThirdPersonExampleMap.ThirdPersonExampleMap:PersistentLevel.ThirdPersonExampleMap' with GeneratedClass '/Game/ThirdPersonCPP/Maps/ThirdPersonExampleMap.ThirdPersonExampleMap_C' with ClassGeneratedBy '/Game/ThirdPersonCPP/Maps/ThirdPersonExampleMap.ThirdPersonExampleMap:PersistentLevel.ThirdPersonExampleMap'
[2023.01.10-14.11.04:915][226]LogSlate: Updating window title bar state: overlay mode, drag disabled, window buttons hidden, title bar hidden
[2023.01.10-14.11.05:014][226]LogPlayLevel: Display: Shutting down PIE online subsystems
[2023.01.10-14.11.05:015][226]LogBlueprintUserMessages: Late EndPlayMap Detection: Level '/Game/ThirdPersonCPP/Maps/ThirdPersonExampleMap.ThirdPersonExampleMap:PersistentLevel' has LevelScriptBlueprint '/Game/ThirdPersonCPP/Maps/ThirdPersonExampleMap.ThirdPersonExampleMap:PersistentLevel.ThirdPersonExampleMap' with GeneratedClass '/Game/ThirdPersonCPP/Maps/ThirdPersonExampleMap.ThirdPersonExampleMap_C' with ClassGeneratedBy '/Game/ThirdPersonCPP/Maps/ThirdPersonExampleMap.ThirdPersonExampleMap:PersistentLevel.ThirdPersonExampleMap'
[2023.01.10-14.11.05:060][226]LogSlate: Updating window title bar state: overlay mode, drag disabled, window buttons hidden, title bar hidden
[2023.01.10-14.11.05:098][227]LogPlayLevel: Display: Destroying online subsystem :Context_15
[2023.01.10-14.13.16:661][596]BlueprintLog: New page: ThirdPersonCharacter をコンパイル
[2023.01.10-14.13.17:696][634]LogTemp: Repeating last play command: 選択ビューポート
[2023.01.10-14.13.17:745][634]LogBlueprintUserMessages: Early PlayInEditor Detection: Level '/Game/ThirdPersonCPP/Maps/ThirdPersonExampleMap.ThirdPersonExampleMap:PersistentLevel' has LevelScriptBlueprint '/Game/ThirdPersonCPP/Maps/ThirdPersonExampleMap.ThirdPersonExampleMap:PersistentLevel.ThirdPersonExampleMap' with GeneratedClass '/Game/ThirdPersonCPP/Maps/ThirdPersonExampleMap.ThirdPersonExampleMap_C' with ClassGeneratedBy '/Game/ThirdPersonCPP/Maps/ThirdPersonExampleMap.ThirdPersonExampleMap:PersistentLevel.ThirdPersonExampleMap'
[2023.01.10-14.13.17:746][634]LogPlayLevel: PlayLevel: No blueprints needed recompiling
[2023.01.10-14.13.17:746][634]PIE: New page: PIEセッション: ThirdPersonExampleMap (2023/01/11 8:13:17)
[2023.01.10-14.13.17:746][634]LogPlayLevel: Creating play world package: /Game/ThirdPersonCPP/Maps/UEDPIE_0_ThirdPersonExampleMap
[2023.01.10-14.13.17:767][634]LogPlayLevel: PIE: StaticDuplicateObject took: (0.020695s)
[2023.01.10-14.13.17:768][634]LogAIModule: Creating AISystem for world ThirdPersonExampleMap
[2023.01.10-14.13.17:769][634]LogPlayLevel: PIE: World Init took: (0.001758s)
[2023.01.10-14.13.17:769][634]LogPlayLevel: PIE: Created PIE world by copying editor world from /Game/ThirdPersonCPP/Maps/ThirdPersonExampleMap.ThirdPersonExampleMap to /Game/ThirdPersonCPP/Maps/UEDPIE_0_ThirdPersonExampleMap.ThirdPersonExampleMap (0.022800s)
[2023.01.10-14.13.17:810][634]LogInit: XAudio2 using 'スピーカー (DisplayLink Audio)' : 2 channels at 48 kHz using 16 bits per sample (channel mask 0x3)
[2023.01.10-14.13.17:819][634]LogInit: FAudioDevice initialized.
[2023.01.10-14.13.17:837][634]LogSlate: Updating window title bar state: overlay mode, drag disabled, window buttons hidden, title bar hidden
[2023.01.10-14.13.17:905][634]LogLoad: Game class is 'FEGM_BP_C'
[2023.01.10-14.13.17:925][634]LogWorld: Bringing World /Game/ThirdPersonCPP/Maps/UEDPIE_0_ThirdPersonExampleMap.ThirdPersonExampleMap up for play (max tick rate 60) at 2023.01.10-23.13.17
[2023.01.10-14.13.17:927][634]LogWorld: Bringing up level for play took: 0.022255
[2023.01.10-14.13.17:946][634]PIE: /Game/ThirdPersonCPP/Maps/UEDPIE_0_ThirdPersonExampleMap 0.435のプレイ イン エディタの開始時間
[2023.01.10-14.13.17:947][634]LogBlueprintUserMessages: Late PlayInEditor Detection: Level '/Game/ThirdPersonCPP/Maps/ThirdPersonExampleMap.ThirdPersonExampleMap:PersistentLevel' has LevelScriptBlueprint '/Game/ThirdPersonCPP/Maps/ThirdPersonExampleMap.ThirdPersonExampleMap:PersistentLevel.ThirdPersonExampleMap' with GeneratedClass '/Game/ThirdPersonCPP/Maps/ThirdPersonExampleMap.ThirdPersonExampleMap_C' with ClassGeneratedBy '/Game/ThirdPersonCPP/Maps/ThirdPersonExampleMap.ThirdPersonExampleMap:PersistentLevel.ThirdPersonExampleMap'
